10 -0.39014 -5.899999999999794e-4
9 -0.38955 -3.4000000000000696e-4
8 -0.38921 -5.700000000000149e-4
7 -0.38864 1.0900000000000354e-3
6 -0.38973 -2.1300000000000208e-3
5 -0.3876 1.9100000000000228e-3
4 -0.38951 -9.300000000000419e-4
3 -0.38858 3.5000000000001696e-4
2 -0.38893 -1.3000000000000234e-3
1 -0.38763 -8.499999999999619e-4
0 -0.38678 0