%!PS-Adobe-2.0
%%Title: ./Pic1.ps (Landscape A 4)
%%Pages: (atend)
%%Creator: HIGZ Version 1.29/04
%%CreationDate: 2017/06/05   20.13
%%EndComments
%%BeginProlog
/s {stroke} def /l {lineto} def /m {moveto} def /t {translate} def
/sw {stringwidth} def /r {rotate} def /rl {roll}  def /R {repeat} def
/d {rlineto} def /rm {rmoveto} def /gr {grestore} def /f {eofill} def
/c {setrgbcolor} def /lw {setlinewidth} def /sd {setdash} def
/cl {closepath} def /sf {scalefont setfont} def /black {0 setgray} def
/box {m dup 0 exch d exch 0 d 0 exch neg d cl} def
/NC{systemdict begin initclip end}def/C{NC box clip newpath}def
/bl {box s} def /bf {box f} def /Y { 0 exch d} def /X { 0 d} def 
/mp {newpath /y exch def /x exch def} def
/side {[w .77 mul w .23 mul] .385 w mul sd w 0 l currentpoint t -144 r} def
/mr {mp x y w2 0 360 arc} def /m24 {mr s} def /m20 {mr f} def
/mb {mp x y w2 add m w2 neg 0 d 0 w neg d w 0 d 0 w d cl} def
/mt {mp x y w2 add m w2 neg w neg d w 0 d cl} def
/m21 {mb f} def /m25 {mb s} def /m22 {mt f} def /m26 {mt s} def
/m23 {mp x y w2 sub m w2 w d w neg 0 d cl f} def
/m27 {mp x y w2 add m w3 neg w2 neg d w3 w2 neg d w3  w2 d cl s} def
/m28 {mp x w2 sub y w2 sub w3 add m w3 0 d 0 w3 neg d w3 0 d 0 w3 d w3 0 d
 0 w3 d w3 neg 0 d 0 w3 d w3 neg 0 d
 0 w3 neg d w3 neg 0 d cl s } def
/m29 {mp gsave x w2 sub y w2 add w3 sub m currentpoint t
 4 {side} repeat cl fill gr} def
/m30 {mp gsave x w2 sub y w2 add w3 sub m currentpoint t
 5 {side} repeat s gr} def
/m31 {mp x y w2 sub m 0 w d x w2 sub y m w 0 d
 x w2 sub y w2 add m w w neg d x w2 sub y w2
 sub m w w d s} def
/m2 {mp x y w2 sub m 0 w d x w2 sub y m w 0 d s} def
/m5 {mp x w2 sub y w2 sub m w w d x w2 sub y w2 add m w w neg d s} def
/reencdict 24 dict def /ReEncode {reencdict begin /nco&na exch def
/nfnam exch def /basefontname exch def /basefontdict basefontname findfont def
/newfont basefontdict maxlength dict def basefontdict {exch dup /FID ne
{dup /Encoding eq {exch dup length array copy newfont 3 1 roll put} {exch
newfont 3 1 roll put} ifelse} {pop pop} ifelse } forall newfont
/FontName nfnam put nco&na aload pop nco&na length 2 idiv {newfont
/Encoding get 3 1 roll put} repeat nfnam newfont definefont pop end } def
/accvec [ 176 /agrave 181 /Agrave 190 /acircumflex 192 /Acircumflex
201 /adieresis 204 /Adieresis 209 /ccedilla 210 /Ccedilla 211 /eacute
212 /Eacute 213 /egrave 214 /Egrave 215 /ecircumflex 216 /Ecircumflex
217 /edieresis 218 /Edieresis 219 /icircumflex 220 /Icircumflex
221 /idieresis 222 /Idieresis 223 /ntilde 224 /Ntilde 226 /ocircumflex
228 /Ocircumflex 229 /odieresis 230 /Odieresis 231 /ucircumflex 236 /Ucircumflex
237 /udieresis 238 /Udieresis 239 /aring 242 /Aring 243 /ydieresis
244 /Ydieresis 246 /aacute 247 /Aacute 252 /ugrave 253 /Ugrave] def
/Times-Roman /Times-Roman accvec ReEncode
/Times-Italic /Times-Italic accvec ReEncode
/Times-Bold /Times-Bold accvec ReEncode
/Times-BoldItalic /Times-BoldItalic accvec ReEncode
/Helvetica /Helvetica accvec ReEncode
/Helvetica-Oblique /Helvetica-Oblique accvec ReEncode
/Helvetica-Bold /Helvetica-Bold accvec ReEncode
/Helvetica-BoldOblique /Helvetica-BoldOblique  accvec ReEncode
/Courier /Courier accvec ReEncode
/Courier-Oblique /Courier-Oblique accvec ReEncode
/Courier-Bold /Courier-Bold accvec ReEncode
/Courier-BoldOblique /Courier-BoldOblique accvec ReEncode
/oshow {gsave [] 0 sd true charpath stroke gr} def
/stwn { /fs exch def /fn exch def /text exch def fn findfont fs sf
 text sw pop xs add /xs exch def} def
/stwb { /fs exch def /fn exch def /nbas exch def /textf exch def
textf length /tlen exch def nbas tlen gt {/nbas tlen def} if
fn findfont fs sf textf dup length nbas sub nbas getinterval sw
pop neg xs add /xs exch def} def
/accspe [ 65 /plusminus 66 /bar 67 /existential 68 /universal
69 /exclam 70 /numbersign 71 /greater 72 /question 73 /integral
74 /colon 75 /semicolon 76 /less 77 /bracketleft 78 /bracketright
79 /greaterequal 80 /braceleft 81 /braceright 82 /radical
83 /spade 84 /heart 85 /diamond 86 /club 87 /lessequal
88 /multiply 89 /percent 90 /infinity 48 /circlemultiply 49 /circleplus
50 /emptyset 51 /lozenge 52 /bullet 53 /arrowright 54 /arrowup
55 /arrowleft 56 /arrowdown 57 /arrowboth 48 /degree 44 /comma 43 /plus
 45 /angle 42 /angleleft 47 /divide 61 /notequal 40 /equivalence 41 /second
 97 /approxequal 98 /congruent 99 /perpendicular 100 /partialdiff 101 /florin
 102 /intersection 103 /union 104 /propersuperset 105 /reflexsuperset
 106 /notsubset 107 /propersubset 108 /reflexsubset 109 /element 110 /notelement
 111 /gradient 112 /logicaland 113 /logicalor 114 /arrowdblboth
 115 /arrowdblleft 116 /arrowdblup 117 /arrowdblright 118 /arrowdbldown
 119 /ampersand 120 /omega1 121 /similar 122 /aleph ] def
/Symbol /Special accspe ReEncode
/Zone {/iy exch def /ix exch def  ix 1 sub  3144 mul  1 iy sub  2224
 mul t} def
%%EndProlog
%%Page: number 1
%%BeginSetup
%%EndSetup
newpath  gsave  90 r 0 -595 t  28 20 t .25 .25 scale  gsave  gsave 
 1 1 Zone
 gsave 0 0 t black [] 0 sd 1 lw 3144 3144 0 0 C 1 0.94 0.87 c 2516 1784 314 223
 bf 2516 1784 314 223 C 0.4 0.4 0.44 c 283 1110 m -139 X 11 Y 139 X -11 Y f 0.5
 0.5 0.5 c 283 1110 m -139 X 11 Y 139 X -11 Y cl s 0 0.4 0 c 2253 -984 m 126 X
 2178 Y -126 -3 d -2175 Y f 0.5 0.5 0.5 c 2253 -984 m 126 X 2178 Y -126 -3 d
 -2175 Y cl s 0 0.4 0 c 2253 3215 m 126 X -1801 Y -126 -44 d 1845 Y f 0.5 0.5
 0.5 c 2253 3215 m 126 X -1801 Y -126 -44 d 1845 Y cl s 0 0.4 0 c 2159 12 m 59 X
 1165 Y -59 X -1165 Y f 0.5 0.5 0.5 c 2159 12 m 59 X 1165 Y -59 X -1165 Y cl s 0
 0.4 0 c 2159 2342 m 59 X -955 Y -59 X 955 Y f 0.5 0.5 0.5 c 2159 2342 m 59 X
 -955 Y -59 X 955 Y cl s 0 0.4 0 c 2045 527 m 24 X 643 Y -24 X -643 Y f 0.5 0.5
 0.5 c 2045 527 m 24 X 643 Y -24 X -643 Y cl s 0 0.4 0 c 2045 1813 m 24 X -442 Y
 -24 X 442 Y f 0.5 0.5 0.5 c 2045 1813 m 24 X -442 Y -24 X 442 Y cl s 0.7 0.9 1
 c 802 -39 m -164 315 d 815 Y 164 X -1130 Y f 0.5 0.5 0.5 c 802 -39 m -164 315 d
 815 Y 164 X -1130 Y cl s 0.7 0.9 1 c 802 2270 m -164 -315 d -812 Y 164 X 1127 Y
 f 0.5 0.5 0.5 c 802 2270 m -164 -315 d -812 Y 164 X 1127 Y cl s 3 lw black 343
 1102 m 28 Y s 1 lw 343 1102 m -5 1 d s 343 1102 m 5 1 d s 343 1130 m -5 X s 343
 1130 m 5 X s 3 lw 393 1103 m 27 Y s 1 lw 393 1103 m -5 X s 393 1103 m 5 X s 393
 1130 m -5 X s 393 1130 m 5 X s 3 lw 393 1012 m 209 Y s 1 lw 393 1012 m -5 X s
 393 1012 m 5 X s 393 1221 m -5 X s 393 1221 m 5 X s 3 lw 399 794 m 651 Y s 1 lw
 399 794 m -5 X s 399 794 m 6 X s 399 1445 m -5 X s 399 1445 m 6 X s 3 lw 400
 796 m 651 Y s 1 lw 400 796 m -5 X s 400 796 m 5 X s 400 1447 m -5 X s 400 1447
 m 5 X s 3 lw 419 1103 m 27 Y s 1 lw 419 1103 m -5 X s 419 1103 m 5 X s 419 1130
 m -5 X s 419 1130 m 5 X s 3 lw 419 1012 m 210 Y s 1 lw 419 1012 m -5 X s 419
 1012 m 5 X s 419 1222 m -5 X s 419 1222 m 5 X s 3 lw 426 1104 m 28 Y s 1 lw 426
 1104 m -5 X s 426 1104 m 5 X s 426 1132 m -5 X s 426 1132 m 5 X s 3 lw 445 1103
 m 27 Y s 1 lw 445 1103 m -5 X s 445 1103 m 5 X s 445 1130 m -5 X s 445 1130 m 5
 X s 3 lw 445 1012 m 209 Y s 1 lw 445 1012 m -5 X s 445 1012 m 5 X s 445 1221 m
 -5 X s 445 1221 m 5 X s 3 lw 452 793 m 650 Y s 1 lw 452 793 m -5 X s 452 793 m
 5 X s 452 1443 m -5 X s 452 1443 m 5 X s 3 lw 452 795 m 650 Y s 1 lw 452 795 m
 -5 X s 452 795 m 5 X s 452 1445 m -5 X s 452 1445 m 5 X s 3 lw 560 580 m 1079 Y
 s 1 lw 560 580 m -5 X s 560 580 m 5 X s 560 1659 m -5 X s 560 1659 m 5 X s 3 lw
 560 578 m 1079 Y s 1 lw 560 578 m -5 X s 560 578 m 5 X s 560 1657 m -5 X s 560
 1657 m 5 X s 3 lw 566 1034 m 161 Y s 1 lw 566 1034 m -5 X s 566 1034 m 5 X s
 566 1195 m -5 X s 566 1195 m 5 X s 3 lw 580 579 m 1079 Y s 1 lw 580 579 m -5 X
 s 580 579 m 5 X s 580 1658 m -5 X s 580 1658 m 5 X s 3 lw 581 577 m 1079 Y s 1
 lw 581 577 m -5 X s 581 577 m 5 X s 581 1656 m -5 X s 581 1656 m 5 X s 3 lw 587
 1034 m 162 Y s 1 lw 587 1034 m -5 1 d s 587 1034 m 5 1 d s 587 1196 m -5 X s
 587 1196 m 5 X s 3 lw 595 275 m 491 Y s 1 lw 595 275 m -5 -1 d s 595 275 m 5 -1
 d s 595 766 m -5 X s 595 766 m 5 X s 3 lw 595 1477 m 492 Y s 1 lw 595 1477 m -5
 X s 595 1477 m 5 X s 595 1969 m -5 X s 595 1969 m 5 X s 3 lw 595 755 m 720 Y s
 1 lw 595 755 m -5 X s 595 755 m 5 X s 595 1475 m -5 X s 595 1475 m 5 X s 3 lw
 595 754 m 719 Y s 1 lw 595 754 m -5 X s 595 754 m 5 X s 595 1473 m -5 X s 595
 1473 m 5 X s 3 lw 596 269 m 498 Y s 1 lw 596 269 m -6 X s 596 269 m 5 X s 596
 767 m -6 X s 596 767 m 5 X s 3 lw 596 1475 m 491 Y s 1 lw 596 1475 m -6 -1 d s
 596 1475 m 5 -1 d s 596 1966 m -6 1 d s 596 1966 m 5 1 d s 3 lw 605 275 m 491 Y
 s 1 lw 605 275 m -5 X s 605 275 m 5 X s 605 766 m -5 X s 605 766 m 5 X s 3 lw
 605 1478 m 490 Y s 1 lw 605 1478 m -5 X s 605 1478 m 5 X s 605 1968 m -5 X s
 605 1968 m 5 X s 3 lw 606 756 m 719 Y s 1 lw 606 756 m -5 -1 d s 606 756 m 5 -1
 d s 606 1475 m -5 X s 606 1475 m 5 X s 3 lw 606 754 m 719 Y s 1 lw 606 754 m -5
 X s 606 754 m 5 X s 606 1473 m -5 X s 606 1473 m 5 X s 3 lw 606 272 m 491 Y s 1
 lw 606 272 m -5 X s 606 272 m 5 X s 606 763 m -5 X s 606 763 m 5 X s 3 lw 606
 1476 m 490 Y s 1 lw 606 1476 m -5 X s 606 1476 m 5 X s 606 1966 m -5 X s 606
 1966 m 5 X s 3 lw 611 1034 m 162 Y s 1 lw 611 1034 m -5 X s 611 1034 m 5 X s
 611 1196 m -5 X s 611 1196 m 5 X s 3 lw 629 1097 m 45 Y s 1 lw 629 1097 m -5 X
 s 629 1097 m 5 X s 629 1142 m -5 X s 629 1142 m 5 X s 3 lw 813 724 m 799 Y s 1
 lw 813 724 m -5 X s 813 724 m 5 X s 813 1523 m -5 X s 813 1523 m 5 X s 3 lw 819
 1042 m 162 Y s 1 lw 819 1042 m -6 1 d s 819 1042 m 5 1 d s 819 1204 m -6 X s
 819 1204 m 5 X s 3 lw 1037 1097 m 53 Y s 1 lw 1037 1097 m -5 X s 1037 1097 m 5
 X s 1037 1150 m -5 X s 1037 1150 m 5 X s 3 lw 1042 723 m 800 Y s 1 lw 1042 723
 m -5 X s 1042 723 m 5 X s 1042 1523 m -5 X s 1042 1523 m 5 X s 3 lw 1047 1042 m
 162 Y s 1 lw 1047 1042 m -5 X s 1047 1042 m 5 X s 1047 1204 m -5 X s 1047 1204
 m 5 X s 3 lw 1065 223 m 1784 Y s 1068 223 m 1784 Y s 1073 223 m 1784 Y s 1076
 223 m 1784 Y s 1116 1105 m 53 Y s 1 lw 1116 1105 m -5 X s 1116 1105 m 5 X s
 1116 1158 m -5 X s 1116 1158 m 5 X s 3 lw 1127 223 m 1784 Y s 1129 223 m 1784 Y
 s 1135 223 m 1784 Y s 1138 223 m 1784 Y s 1144 728 m 800 Y s 1 lw 1144 728 m -5
 X s 1144 728 m 6 X s 1144 1528 m -5 X s 1144 1528 m 6 X s 3 lw 1150 1047 m 161
 Y s 1 lw 1150 1047 m -5 X s 1150 1047 m 5 X s 1150 1208 m -5 X s 1150 1208 m 5
 X s 3 lw 1386 743 m 799 Y s 1 lw 1386 743 m -5 X s 1386 743 m 5 X s 1386 1542 m
 -5 X s 1386 1542 m 5 X s 3 lw 1391 1061 m 162 Y s 1 lw 1391 1061 m -5 X s 1391
 1061 m 5 X s 1391 1223 m -5 X s 1391 1223 m 5 X s 3 lw 1401 740 m 799 Y s 1 lw
 1401 740 m -5 X s 1401 740 m 5 X s 1401 1539 m -5 X s 1401 1539 m 5 X s 3 lw
 1407 1058 m 162 Y s 1 lw 1407 1058 m -5 X s 1407 1058 m 5 X s 1407 1220 m -5 X
 s 1407 1220 m 5 X s 3 lw 1417 746 m 799 Y s 1 lw 1417 746 m -5 X s 1417 746 m 5
 X s 1417 1545 m -5 X s 1417 1545 m 5 X s 3 lw 1422 1064 m 161 Y s 1 lw 1422
 1064 m -5 X s 1422 1064 m 5 X s 1422 1225 m -5 X s 1422 1225 m 5 X s 3 lw 1423
 1155 m 24 Y s 1 lw 1423 1155 m -5 X s 1423 1155 m 5 X s 1423 1179 m -5 X s 1423
 1179 m 5 X s 3 lw 1425 1117 m 53 Y s 1 lw 1425 1117 m -5 X s 1425 1117 m 5 X s
 1425 1170 m -5 X s 1425 1170 m 5 X s 3 lw 1425 1217 m 17 Y s 1 lw 1425 1217 m
 -5 -1 d s 1425 1217 m 5 -1 d s 1425 1234 m -5 2 d s 1425 1234 m 5 2 d s 3 lw
 1452 1124 m 52 Y s 1 lw 1452 1124 m -6 X s 1452 1124 m 5 X s 1452 1176 m -6 X s
 1452 1176 m 5 X s 3 lw 1781 223 m 1784 Y s 1782 223 m 1784 Y s 1797 223 m 1784
 Y s 1798 223 m 1784 Y s 1905 223 m 1784 Y s 1906 223 m 1784 Y s 1923 794 m 799
 Y s 1 lw 1923 794 m -5 X s 1923 794 m 5 X s 1923 1593 m -5 X s 1923 1593 m 5 X
 s 3 lw 1939 800 m 799 Y s 1 lw 1939 800 m -5 1 d s 1939 800 m 5 1 d s 1939 1599
 m -5 X s 1939 1599 m 5 X s 3 lw 1944 1119 m 161 Y s 1 lw 1944 1119 m -5 X s
 1944 1119 m 5 X s 1944 1280 m -5 X s 1944 1280 m 5 X s 3 lw 1955 223 m 1784 Y s
 1956 223 m 1784 Y s 1974 1226 m 64 Y s 1 lw 1974 1226 m -5 X s 1974 1226 m 5 X
 s 1974 1290 m -5 X s 1974 1290 m 5 X s 3 lw 2440 1393 m 693 Y s 1 lw 2440 1393
 m -5 X s 2440 1393 m 6 X s 3 lw 2510 1006 m 800 Y s 1 lw 2510 1006 m -5 1 d s
 2510 1006 m 5 1 d s 2510 1806 m -5 X s 2510 1806 m 5 X s 3 lw 2538 223 m 1784 Y
 s 2538 1110 m 510 Y s 1 lw 2538 1110 m -5 -5 d s 2538 1110 m 5 -5 d s 2538 1620
 m -5 5 d s 2538 1620 m 5 5 d s 3 lw 2540 223 m 1784 Y s 2540 1101 m 510 Y s 1
 lw 2540 1101 m -5 -5 d s 2540 1101 m 5 -5 d s 2540 1611 m -5 5 d s 2540 1611 m
 5 5 d s 3 lw 2617 1018 m 799 Y s 1 lw 2617 1018 m -5 X s 2617 1018 m 5 X s 2617
 1817 m -5 X s 2617 1817 m 5 X s 3 lw 2647 223 m 1784 Y s 2647 1117 m 510 Y s 1
 lw 2647 1117 m -5 -5 d s 2647 1117 m 5 -5 d s 2647 1627 m -5 5 d s 2647 1627 m
 5 5 d s 3 lw 2648 223 m 1784 Y s 2648 1108 m 510 Y s 1 lw 2648 1108 m -5 -5 d s
 2648 1108 m 5 -5 d s 2648 1618 m -5 5 d s 2648 1618 m 5 5 d s 3 lw 2732 1030 m
 799 Y s 1 lw 2732 1030 m -5 X s 2732 1030 m 5 X s 2732 1829 m -5 X s 2732 1829
 m 5 X s 3 lw 2785 1330 m 161 Y s 1 lw 2785 1330 m -5 X s 2785 1330 m 5 X s 2785
 1491 m -5 X s 2785 1491 m 5 X s 2834 1462 m -5 X s 1 0.93 1 c 468 590 m 74 X
 1050 Y -74 X -1050 Y f 0.5 0.5 0.5 c 468 590 m 74 X 1050 Y -74 X -1050 Y cl s 1
 0.93 1 c 1166 590 m 210 X 1050 Y -210 X -1050 Y f 0.5 0.5 0.5 c 1166 590 m 210
 X 1050 Y -210 X -1050 Y cl s 0 0 1 c /w 11
 def /w2 {w 2 div} def /w3 {w 3 div} def 399 1166 m20 399 1168 m20 400 1167 m20
 400 1171 m20 452 1168 m20 452 1171 m20 452 1167 m20 452 1168 m20 560 1170 m20
 560 1166 m20 560 1170 m20 580 1168 m20 580 1171 m20 581 1171 m20 581 1172 m20
 595 1172 m20 595 1174 m20 595 1171 m20 595 1172 m20 606 1172 m20 606 1174 m20
 606 1170 m20 606 1173 m20 813 1178 m20 813 1486 m20 1042 1184 m20 1068 1126 m20
 1068 1131 m20 1144 1187 m20 1150 1114 m20 1386 1204 m20 1401 1205 m20 1417 1207
 m20 1781 1243 m20 1781 1253 m20 1782 1253 m20 1782 1264 m20 1797 1247 m20 1797
 1255 m20 1798 1089 m20 1798 1098 m20 1798 1255 m20 1798 1268 m20 1905 1191 m20
 1905 1199 m20 1906 1261 m20 1906 1267 m20 1906 1270 m20 1906 1277 m20 1923 1270
 m20 1939 1272 m20 1955 1263 m20 1955 1274 m20 1956 1275 m20 1956 1282 m20 2510
 1246 m20 2510 1249 m20 /w 13 def /w2 {w 2 div} def /w3 {w 3 div} def 2538 1346
 m20 2538 1349 m20 2540 1349 m20 2540 1363 m20 /w 11
 def /w2 {w 2 div} def /w3 {w 3 div} def 2617 1257 m20 2617 1260 m20 /w 13
 def /w2 {w 2 div} def /w3 {w 3 div} def 2647 1364 m20 2647 1379 m20 2648 1361
 m20 2648 1364 m20 /w 11 def /w2 {w 2 div} def /w3 {w 3 div} def 560 1170 m20
 560 1166 m20 560 1170 m20 580 1168 m20 580 1171 m20 581 1171 m20 581 1172 m20
 595 1172 m20 595 1174 m20 595 1171 m20 595 1172 m20 606 1172 m20 606 1174 m20
 606 1170 m20 606 1173 m20 813 1178 m20 813 1486 m20 1042 1184 m20 1068 1126 m20
 1068 1131 m20 1144 1187 m20 1150 1114 m20 1386 1204 m20 1401 1205 m20 1417 1207
 m20 1781 1243 m20 1781 1253 m20 1782 1253 m20 1782 1264 m20 1797 1247 m20 1797
 1255 m20 1798 1089 m20 1798 1098 m20 1798 1255 m20 1798 1268 m20 1905 1191 m20
 1905 1199 m20 1906 1261 m20 1906 1267 m20 1906 1270 m20 1906 1277 m20 1923 1270
 m20 1939 1272 m20 1955 1263 m20 1955 1274 m20 1956 1275 m20 1956 1282 m20 2510
 1246 m20 2510 1249 m20 /w 13 def /w2 {w 2 div} def /w3 {w 3 div} def 2538 1346
 m20 2538 1349 m20 2540 1349 m20 2540 1363 m20 /w 11
 def /w2 {w 2 div} def /w3 {w 3 div} def 2617 1257 m20 2617 1260 m20 /w 13
 def /w2 {w 2 div} def /w3 {w 3 div} def 2647 1364 m20 2647 1379 m20 2648 1361
 m20 2648 1364 m20 /w 11 def /w2 {w 2 div} def /w3 {w 3 div} def 1386 1204 m20
 1401 1205 m20 1417 1207 m20 1781 1243 m20 1781 1253 m20 1782 1253 m20 1782 1264
 m20 1797 1247 m20 1797 1255 m20 1798 1089 m20 1798 1098 m20 1798 1255 m20 1798
 1268 m20 1905 1191 m20 1905 1199 m20 1906 1261 m20 1906 1267 m20 1906 1270 m20
 1906 1277 m20 1923 1270 m20 1939 1272 m20 1955 1263 m20 1955 1274 m20 1956 1275
 m20 1956 1282 m20 2510 1246 m20 2510 1249 m20 /w 13
 def /w2 {w 2 div} def /w3 {w 3 div} def 2538 1346 m20 2538 1349 m20 2540 1349
 m20 2540 1363 m20 /w 11 def /w2 {w 2 div} def /w3 {w 3 div} def 2617 1257 m20
 2617 1260 m20 /w 13 def /w2 {w 2 div} def /w3 {w 3 div} def 2647 1364 m20 2647
 1379 m20 2648 1361 m20 2648 1364 m20 /w 11
 def /w2 {w 2 div} def /w3 {w 3 div} def 2510 1246 m20 2510 1249 m20 /w 13
 def /w2 {w 2 div} def /w3 {w 3 div} def 2538 1346 m20 2538 1349 m20 2540 1349
 m20 2540 1363 m20 /w 11 def /w2 {w 2 div} def /w3 {w 3 div} def 2617 1257 m20
 2617 1260 m20 /w 13 def /w2 {w 2 div} def /w3 {w 3 div} def 2647 1364 m20 2647
 1379 m20 2648 1361 m20 2648 1364 m20 /w 11
 def /w2 {w 2 div} def /w3 {w 3 div} def 399 1166 m20 399 1168 m20 400 1167 m20
 400 1171 m20 452 1168 m20 452 1171 m20 452 1167 m20 452 1168 m20 560 1170 m20
 560 1166 m20 560 1170 m20 580 1168 m20 580 1171 m20 581 1171 m20 581 1172 m20
 595 1172 m20 595 1174 m20 595 1171 m20 595 1172 m20 606 1172 m20 606 1174 m20
 606 1170 m20 606 1173 m20 813 1178 m20 813 1486 m20 1042 1184 m20 1068 1126 m20
 1068 1131 m20 1144 1187 m20 1150 1114 m20 1386 1204 m20 1401 1205 m20 1417 1207
 m20 1781 1243 m20 1781 1253 m20 1782 1253 m20 1782 1264 m20 1797 1247 m20 1797
 1255 m20 1798 1089 m20 1798 1098 m20 1798 1255 m20 1798 1268 m20 1905 1191 m20
 1905 1199 m20 1906 1261 m20 1906 1267 m20 1906 1270 m20 1906 1277 m20 1923 1270
 m20 1939 1272 m20 1955 1263 m20 1955 1274 m20 1956 1275 m20 1956 1282 m20 2510
 1246 m20 2510 1249 m20 /w 13 def /w2 {w 2 div} def /w3 {w 3 div} def 2538 1346
 m20 2538 1349 m20 2540 1349 m20 2540 1363 m20 /w 11
 def /w2 {w 2 div} def /w3 {w 3 div} def 2617 1257 m20 2617 1260 m20 /w 13
 def /w2 {w 2 div} def /w3 {w 3 div} def 2647 1364 m20 2647 1379 m20 2648 1361
 m20 2648 1364 m20 3 lw 1 0 0 c 398 1168 m 8 X s 406 1168 m 9 X s 415 1168 m 8 X
 s 423 1168 m 9 X s 432 1168 m 8 X s 440 1168 m 8 X s 448 1168 m 9 X s 457 1168
 m 8 X s 465 1168 m 9 X s 474 1168 m 8 X s 482 1168 m 8 1 d s 490 1169 m 9 X s
 499 1169 m 8 X s 507 1169 m 8 X s 515 1169 m 9 X s 524 1169 m 8 1 d s 532 1170
 m 9 X s 541 1170 m 8 X s 549 1170 m 8 X s 557 1170 m 9 1 d s 566 1171 m 8 X s
 574 1171 m 9 X s 583 1171 m 8 X s 591 1171 m 8 1 d s 599 1172 m 9 X s 608 1172
 m 8 X s 616 1172 m 8 X s 624 1172 m 9 1 d s 633 1173 m 8 X s 641 1173 m 9 X s
 650 1173 m 8 X s 658 1173 m 8 1 d s 666 1174 m 9 X s 675 1174 m 8 X s 683 1174
 m 9 1 d s 692 1175 m 8 X s 700 1175 m 8 X s 708 1175 m 9 X s 717 1175 m 8 1 d s
 725 1176 m 8 X s 733 1176 m 9 X s 742 1176 m 8 X s 750 1176 m 9 1 d s 759 1177
 m 8 X s 767 1177 m 8 X s 775 1177 m 9 X s 784 1177 m 8 1 d s 792 1178 m 9 X s
 801 1178 m 8 X s 809 1178 m 8 1 d s 817 1179 m 9 X s 826 1179 m 8 X s 834 1179
 m 8 X s 842 1179 m 9 1 d s 851 1180 m 8 X s 859 1180 m 9 X s 868 1180 m 8 X s
 876 1180 m 8 1 d s 884 1181 m 9 X s 893 1181 m 8 X s 901 1181 m 9 1 d s 910
 1182 m 8 X s 918 1182 m 8 X s 926 1182 m 9 X s 935 1182 m 8 1 d s 943 1183 m 8
 X s 951 1183 m 9 X s 960 1183 m 8 X s 968 1183 m 9 1 d s 977 1184 m 8 X s 985
 1184 m 8 X s 993 1184 m 9 1 d s 1002 1185 m 8 X s 1010 1185 m 9 X s 1019 1185 m
 8 X s 1027 1185 m 8 1 d s 1035 1186 m 9 X s 1044 1186 m 8 X s 1052 1186 m 8 X s
 1060 1186 m 9 1 d s 1069 1187 m 8 X s 1077 1187 m 9 X s 1086 1187 m 8 X s 1094
 1187 m 8 1 d s 1102 1188 m 9 X s 1111 1188 m 8 X s 1119 1188 m 9 1 d s 1128
 1189 m 8 X s 1136 1189 m 8 X s 1144 1189 m 9 X s 1153 1189 m 8 1 d s 1161 1190
 m 8 X s 1169 1190 m 9 X s 1178 1190 m 8 X s 1186 1190 m 9 1 d s 1195 1191 m 8 X
 s 1203 1191 m 8 X s 1211 1191 m 9 1 d s 1220 1192 m 8 X s 1228 1192 m 9 1 d s
 1237 1193 m 8 X s 1245 1193 m 8 1 d s 1253 1194 m 9 X s 1262 1194 m 8 1 d s
 1270 1195 m 8 1 d s 1278 1196 m 9 X s 1287 1196 m 8 1 d s 1295 1197 m 9 1 d s
 1304 1198 m 8 1 d s 1312 1199 m 8 1 d s 1320 1200 m 9 1 d s 1329 1201 m 8 1 d s
 1337 1202 m 9 1 d s 1346 1203 m 8 1 d s 1354 1204 m 8 2 d s 1362 1206 m 9 1 d s
 1371 1207 m 8 1 d s 1379 1208 m 8 1 d s 1387 1209 m 9 1 d s 1396 1210 m 8 1 d s
 1404 1211 m 9 1 d s 1413 1212 m 8 1 d s 1421 1213 m 8 2 d s 1429 1215 m 9 1 d s
 1438 1216 m 8 1 d s 1446 1217 m 8 1 d s 1454 1218 m 9 1 d s 1463 1219 m 8 1 d s
 1471 1220 m 9 1 d s 1480 1221 m 8 1 d s 1488 1222 m 8 2 d s 1496 1224 m 9 1 d s
 1505 1225 m 8 1 d s 1513 1226 m 9 1 d s 1522 1227 m 8 1 d s 1530 1228 m 8 1 d s
 1538 1229 m 9 1 d s 1547 1230 m 8 1 d s 1555 1231 m 8 2 d s 1563 1233 m 9 1 d s
 1572 1234 m 8 1 d s 1580 1235 m 9 1 d s 1589 1236 m 8 1 d s 1597 1237 m 8 1 d s
 1605 1238 m 9 1 d s 1614 1239 m 8 1 d s 1622 1240 m 9 2 d s 1631 1242 m 8 1 d s
 1639 1243 m 8 1 d s 1647 1244 m 9 1 d s 1656 1245 m 8 1 d s 1664 1246 m 8 1 d s
 1672 1247 m 9 1 d s 1681 1248 m 8 1 d s 1689 1249 m 9 2 d s 1698 1251 m 8 1 d s
 1706 1252 m 8 1 d s 1714 1253 m 9 1 d s 1723 1254 m 8 1 d s 1731 1255 m 9 1 d s
 1740 1256 m 8 1 d s 1748 1257 m 8 1 d s 1756 1258 m 9 2 d s 1765 1260 m 8 1 d s
 1773 1261 m 8 1 d s 1781 1262 m 9 1 d s 1790 1263 m 8 1 d s 1798 1264 m 9 1 d s
 1807 1265 m 8 1 d s 1815 1266 m 8 1 d s 1823 1267 m 9 2 d s 1832 1269 m 8 1 d s
 1840 1270 m 9 1 d s 1849 1271 m 8 1 d s 1857 1272 m 8 1 d s 1865 1273 m 9 1 d s
 1874 1274 m 8 1 d s 1882 1275 m 8 1 d s 1890 1276 m 9 2 d s 1899 1278 m 8 1 d s
 1907 1279 m 9 1 d s 1916 1280 m 8 1 d s 1924 1281 m 8 1 d s 1932 1282 m 9 1 d s
 1941 1283 m 8 1 d s 1949 1284 m 9 1 d s 1958 1285 m 8 2 d s 1966 1287 m 8 1 d s
 1974 1288 m 9 1 d s 1983 1289 m 8 1 d s 1991 1290 m 8 1 d s 1999 1291 m 9 1 d s
 2008 1292 m 8 1 d s 2016 1293 m 9 1 d s 2025 1294 m 8 2 d s 2033 1296 m 8 1 d s
 2041 1297 m 9 1 d s 2050 1298 m 8 1 d s 2058 1299 m 9 1 d s 2067 1300 m 8 1 d s
 2075 1301 m 8 1 d s 2083 1302 m 9 1 d s 2092 1303 m 8 2 d s 2100 1305 m 8 1 d s
 2108 1306 m 9 1 d s 2117 1307 m 8 1 d s 2125 1308 m 9 1 d s 2134 1309 m 8 1 d s
 2142 1310 m 8 1 d s 2150 1311 m 9 1 d s 2159 1312 m 8 2 d s 2167 1314 m 9 1 d s
 2176 1315 m 8 1 d s 2184 1316 m 8 1 d s 2192 1317 m 9 1 d s 2201 1318 m 8 1 d s
 2209 1319 m 8 1 d s 2217 1320 m 9 1 d s 2226 1321 m 8 2 d s 2234 1323 m 9 1 d s
 2243 1324 m 8 1 d s 2251 1325 m 8 1 d s 2259 1326 m 9 1 d s 2268 1327 m 8 1 d s
 2276 1328 m 9 1 d s 2285 1329 m 8 1 d s 2293 1330 m 8 2 d s 2301 1332 m 9 1 d s
 2310 1333 m 8 1 d s 2318 1334 m 8 1 d s 2326 1335 m 9 1 d s 2335 1336 m 8 1 d s
 2343 1337 m 9 1 d s 2352 1338 m 8 1 d s 2360 1339 m 8 2 d s 2368 1341 m 9 1 d s
 2377 1342 m 8 1 d s 2385 1343 m 9 1 d s 2394 1344 m 8 1 d s 2402 1345 m 8 1 d s
 2410 1346 m 9 1 d s 2419 1347 m 8 1 d s 2427 1348 m 8 2 d s 2435 1350 m 9 1 d s
 2444 1351 m 8 1 d s 2452 1352 m 9 1 d s 2461 1353 m 8 1 d s 2469 1354 m 8 1 d s
 2477 1355 m 9 1 d s 2486 1356 m 8 1 d s 2494 1357 m 8 2 d s 2502 1359 m 9 1 d s
 2511 1360 m 8 1 d s 2519 1361 m 9 1 d s 2528 1362 m 8 1 d s 2536 1363 m 8 1 d s
 2544 1364 m 9 1 d s 2553 1365 m 8 1 d s 2561 1366 m 9 2 d s 2570 1368 m 8 1 d s
 2578 1369 m 8 1 d s 2586 1370 m 9 1 d s 2595 1371 m 8 1 d s 2603 1372 m 8 1 d s
 2611 1373 m 9 1 d s 2620 1374 m 8 1 d s 2628 1375 m 9 2 d s 2637 1377 m 8 1 d s
 2645 1378 m 8 1 d s 2653 1379 m 9 1 d s 2662 1380 m 8 1 d s 2670 1381 m 9 1 d s
 2679 1382 m 6 1 d s 435 1168 m25 550 1170 m25 603 1172 m25 796 1178 m25 1127
 1186 m25 1378 1203 m25 1546 1223 m25 2384 1329 m25 398 1168 m25 2685 1369 m25
 3144 3144 0 0 C 1 lw 1 0 1 c 1060 2231 m -32 Y s 1060 2231 m 13 X 5 -2 d 1 -1 d
 2 -3 d -3 Y -2 -3 d -1 -2 d -5 -1 d -13 X s 1070 2216 m 11 -17 d s 1091 2220 m
 -15 Y 2 -4 d 3 -2 d 4 X 3 2 d 5 4 d s 1108 2220 m -21 Y s 1120 2220 m -21 Y s
 1120 2214 m 4 5 d 3 1 d 5 X 3 -1 d 1 -5 d -15 Y s 1163 2223 m 2 Y 2 3 d 1 1 d 3
 2 d 6 X 3 -2 d 2 -1 d 1 -3 d -3 Y -1 -3 d -3 -5 d -15 -15 d 21 X s 1213 2231 m
 -15 -32 d s 1192 2231 m 21 X s 1243 2231 m -15 -32 d s 1222 2231 m 21 X s 1273
 2231 m -15 -32 d s 1252 2231 m 21 X s 1286 2225 m 3 1 d 5 5 d -32 Y s 1313 2223
 m 2 Y 1 3 d 2 1 d 3 2 d 6 X 3 -2 d 1 -1 d 2 -3 d -3 Y -2 -3 d -3 -5 d -15 -15 d
 21 X s 1358 2231 m -32 Y s 1358 2231 m 19 X s 1358 2216 m 12 X s 1358 2199 m 19
 X s 1383 2220 m 9 -21 d s 1401 2220 m -9 -21 d s 1409 2211 m 18 X 3 Y -2 3 d -1
 2 d -3 1 d -5 X -3 -1 d -3 -3 d -1 -5 d -3 Y 1 -4 d 3 -3 d 3 -2 d 5 X 3 2 d 3 3
 d s 1437 2220 m -21 Y s 1437 2214 m 5 5 d 3 1 d 4 X 3 -1 d 2 -5 d -15 Y s 1467
 2231 m -26 Y 2 -4 d 3 -2 d 3 X s 1463 2220 m 10 X s 1529 2223 m 2 Y 1 3 d 2 1 d
 3 2 d 6 X 3 -2 d 1 -1 d 2 -3 d -3 Y -2 -3 d -3 -5 d -15 -15 d 21 X s 1562 2225
 m 3 1 d 4 5 d -32 Y s 1590 2231 m 16 X -9 -12 d 5 X 3 -2 d 1 -1 d 2 -5 d -3 Y
 -2 -4 d -3 -3 d -4 -2 d -5 X -4 2 d -2 1 d -1 3 d s 1626 2231 m -5 -2 d -3 -4 d
 -1 -8 d -4 Y 1 -8 d 3 -4 d 5 -2 d 3 X 4 2 d 3 4 d 2 8 d 4 Y -2 8 d -3 4 d -4 2
 d -3 X cl s 1656 2231 m -5 -2 d -3 -4 d -1 -8 d -4 Y 1 -8 d 3 -4 d 5 -2 d 3 X 4
 2 d 3 4 d 2 8 d 4 Y -2 8 d -3 4 d -4 2 d -3 X cl s 1692 2231 m -15 -21 d 22 X s
 1692 2231 m -32 Y s 1711 2225 m 3 1 d 5 5 d -32 Y s 1764 2237 m -3 -3 d -3 -5 d
 -3 -6 d -2 -7 d -6 Y 2 -8 d 3 -6 d 3 -4 d 3 -3 d s 1804 2223 m 2 Y 2 3 d 1 1 d
 3 2 d 6 X 3 -2 d 2 -1 d 1 -3 d -3 Y -1 -3 d -3 -5 d -15 -15 d 21 X s 1837 2201
 m -2 -2 d -1 2 d 1 1 d 2 -1 d -3 Y -2 -3 d -1 -2 d s 1850 2231 m 17 X -9 -12 d
 4 X 3 -2 d 2 -1 d 1 -5 d -3 Y -1 -4 d -3 -3 d -5 -2 d -4 X -5 2 d -1 1 d -2 3 d
 s 1879 2223 m 2 Y 1 3 d 2 1 d 3 2 d 6 X 3 -2 d 1 -1 d 2 -3 d -3 Y -2 -3 d -3 -5
 d -15 -15 d 21 X s 1915 2231 m -5 -2 d -1 -3 d -3 Y 1 -3 d 3 -1 d 6 -2 d 5 -1 d
 3 -3 d 1 -3 d -5 Y -1 -3 d -2 -1 d -4 -2 d -6 X -5 2 d -1 1 d -2 3 d 5 Y 2 3 d
 3 3 d 4 1 d 6 2 d 3 1 d 2 3 d 3 Y -2 3 d -4 2 d -6 X cl s 1945 2231 m -5 -2 d
 -1 -3 d -3 Y 1 -3 d 3 -1 d 6 -2 d 5 -1 d 3 -3 d 1 -3 d -5 Y -1 -3 d -2 -1 d -4
 -2 d -6 X -5 2 d -1 1 d -2 3 d 5 Y 2 3 d 3 3 d 4 1 d 6 2 d 3 1 d 2 3 d 3 Y -2 3
 d -4 2 d -6 X cl s 1987 2220 m -2 -4 d -3 -3 d -4 -2 d -2 X -4 2 d -3 3 d -2 4
 d 2 Y 2 4 d 3 3 d 4 2 d 2 X 4 -2 d 3 -3 d 2 -6 d -7 Y -2 -8 d -3 -4 d -4 -2 d
 -3 X -5 2 d -1 3 d s 1997 2237 m 3 -3 d 3 -5 d 3 -6 d 2 -7 d -6 Y -2 -8 d -3 -6
 d -3 -4 d -3 -3 d s 2042 2231 m -4 -2 d -3 -4 d -2 -8 d -4 Y 2 -8 d 3 -4 d 4 -2
 d 3 X 5 2 d 3 4 d 1 8 d 4 Y -1 8 d -3 4 d -5 2 d -3 X cl s 2066 2202 m -1 -1 d
 1 -2 d 2 2 d -2 1 d cl s 2087 2231 m -4 -2 d -3 -4 d -2 -8 d -4 Y 2 -8 d 3 -4 d
 4 -2 d 3 X 5 2 d 2 4 d 2 8 d 4 Y -2 8 d -2 4 d -5 2 d -3 X cl s 2124 2220 m -21
 Y s 2124 2214 m 5 5 d 3 1 d 4 X 3 -1 d 2 -5 d -15 Y s 2168 2216 m -2 3 d -4 1 d
 -5 X -4 -1 d -2 -3 d 2 -3 d 3 -2 d 7 -1 d 3 -2 d 2 -3 d -1 Y -2 -3 d -4 -2 d -5
 X -4 2 d -2 3 d s 2199 2231 m -32 Y s 2189 2231 m 21 X s 2217 2220 m -21 Y s
 2217 2211 m 2 5 d 3 3 d 3 1 d 4 X s 2235 2231 m 2 -2 d 1 2 d -1 1 d -2 -1 d cl
 s 2237 2220 m -21 Y s 2265 2220 m -24 Y -1 -4 d -2 -2 d -3 -1 d -4 X -3 1 d s
 2265 2216 m -3 3 d -3 1 d -4 X -3 -1 d -3 -3 d -2 -5 d -3 Y 2 -4 d 3 -3 d 3 -2
 d 4 X 3 2 d 3 3 d s 2294 2220 m -24 Y -2 -4 d -1 -2 d -3 -1 d -5 X -3 1 d s
 2294 2216 m -3 3 d -3 1 d -5 X -3 -1 d -3 -3 d -1 -5 d -3 Y 1 -4 d 3 -3 d 3 -2
 d 5 X 3 2 d 3 3 d s 2304 2211 m 18 X 3 Y -1 3 d -2 2 d -3 1 d -4 X -3 -1 d -3
 -3 d -2 -5 d -3 Y 2 -4 d 3 -3 d 3 -2 d 4 X 3 2 d 3 3 d s 2333 2220 m -21 Y s
 2333 2211 m 1 5 d 3 3 d 3 1 d 5 X s 2362 2237 m -3 -3 d -2 -5 d -3 -6 d -2 -7 d
 -6 Y 2 -8 d 3 -6 d 2 -4 d 3 -3 d s 2388 2216 m -2 3 d -4 1 d -5 X -4 -1 d -2 -3
 d 2 -3 d 3 -2 d 7 -1 d 3 -2 d 2 -3 d -1 Y -2 -3 d -4 -2 d -5 X -4 2 d -2 3 d s
 2397 2237 m 3 -3 d 3 -5 d 3 -6 d 1 -7 d -6 Y -1 -8 d -3 -6 d -3 -4 d -3 -3 d s
 2467 2226 m -1 3 d -5 2 d -3 X -4 -2 d -3 -4 d -2 -8 d -7 Y 2 -6 d 3 -3 d 4 -2
 d 2 X 4 2 d 3 3 d 2 4 d 2 Y -2 4 d -3 3 d -4 2 d -2 X -4 -2 d -3 -3 d -2 -4 d s
 2497 2225 m 3 1 d 5 5 d -32 Y s 2542 2226 m -1 3 d -5 2 d -3 X -4 -2 d -3 -4 d
 -2 -8 d -7 Y 2 -6 d 3 -3 d 4 -2 d 2 X 4 2 d 3 3 d 2 4 d 2 Y -2 4 d -3 3 d -4 2
 d -2 X -4 -2 d -3 -3 d -2 -4 d s 2599 2231 m -32 Y s 2599 2231 m 21 -32 d s
 2620 2231 m -32 Y s 2632 2231 m -32 Y s 2632 2214 m 4 5 d 3 1 d 5 X 3 -1 d 1 -5
 d -15 Y s 2659 2231 m 1 -2 d 2 2 d -2 1 d -1 -1 d cl s 2660 2220 m -21 Y s 2674
 2231 m -26 Y 1 -4 d 3 -2 d 3 X s 2669 2220 m 11 X s 2705 2216 m -1 3 d -5 1 d
 -4 X -5 -1 d -1 -3 d 1 -3 d 3 -2 d 8 -1 d 3 -2 d 1 -3 d -1 Y -1 -3 d -5 -2 d -4
 X -5 2 d -1 3 d s 2746 2223 m 2 Y 1 3 d 2 1 d 3 2 d 6 X 3 -2 d 1 -1 d 2 -3 d -3
 Y -2 -3 d -3 -5 d -15 -15 d 21 X s 2789 2231 m -15 -21 d 23 X s 2789 2231 m -32
 Y s 2807 2231 m 17 X -9 -12 d 4 X 3 -2 d 2 -1 d 1 -5 d -3 Y -1 -4 d -3 -3 d -5
 -2 d -4 X -5 2 d -1 1 d -2 3 d s 476 2224 m -25 Y s 476 2224 m 11 X 4 -1 d 1 -1
 d 1 -3 d -3 Y -1 -3 d -1 -1 d -4 -1 d -11 X s 502 2216 m -17 Y s 502 2209 m 1 3
 d 2 3 d 3 1 d 3 X s 522 2216 m -2 -1 d -3 -3 d -1 -3 d -3 Y 1 -3 d 3 -3 d 2 -1
 d 3 X 3 1 d 2 3 d 1 3 d 3 Y -1 3 d -2 3 d -3 1 d -3 X cl s 541 2224 m 1 -1 d 1
 1 d -1 1 d -1 -1 d cl s 542 2216 m -20 Y -1 -4 d -2 -1 d -3 X s 551 2209 m 14 X
 2 Y -1 2 d -1 2 d -3 1 d -3 X -3 -1 d -2 -3 d -1 -3 d -3 Y 1 -3 d 2 -3 d 3 -1 d
 3 X 3 1 d 2 3 d s 587 2212 m -3 3 d -2 1 d -4 X -2 -1 d -3 -3 d -1 -3 d -3 Y 1
 -3 d 3 -3 d 2 -1 d 4 X 2 1 d 3 3 d s 596 2224 m -20 Y 1 -4 d 3 -1 d 2 X s 593
 2216 m 8 X s 608 2224 m 1 -1 d 2 1 d -2 1 d -1 -1 d cl s 609 2216 m -17 Y s 624
 2216 m -3 -1 d -2 -3 d -1 -3 d -3 Y 1 -3 d 2 -3 d 3 -1 d 3 X 3 1 d 2 3 d 1 3 d
 3 Y -1 3 d -2 3 d -3 1 d -3 X cl s 642 2216 m -17 Y s 642 2211 m 3 4 d 3 1 d 3
 X 3 -1 d 1 -4 d -12 Y s 718 2224 m -3 -1 d -3 -4 d -1 -6 d -3 Y 1 -6 d 3 -4 d 3
 -1 d 3 X 3 1 d 3 4 d 1 6 d 3 Y -1 6 d -3 4 d -3 1 d -3 X cl s 737 2201 m -1 -1
 d 1 -1 d 2 1 d -2 1 d cl s 754 2224 m -3 -1 d -3 -4 d -1 -6 d -3 Y 1 -6 d 3 -4
 d 3 -1 d 3 X 3 1 d 3 4 d 1 6 d 3 Y -1 6 d -3 4 d -3 1 d -3 X cl s 797 2224 m
 -25 Y s 797 2212 m -2 3 d -2 1 d -4 X -2 -1 d -3 -3 d -1 -3 d -3 Y 1 -3 d 3 -3
 d 2 -1 d 4 X 2 1 d 2 3 d s 806 2209 m 14 X 2 Y -1 2 d -1 2 d -3 1 d -3 X -3 -1
 d -2 -3 d -1 -3 d -3 Y 1 -3 d 2 -3 d 3 -1 d 3 X 3 1 d 2 3 d s 842 2216 m -19 Y
 -2 -4 d -1 -1 d -2 -1 d -4 X -2 1 d s 842 2212 m -3 3 d -2 1 d -4 X -2 -1 d -2
 -3 d -2 -3 d -3 Y 2 -3 d 2 -3 d 2 -1 d 4 X 2 1 d 3 3 d s 852 2201 m -1 -1 d 1
 -1 d 2 1 d -2 1 d cl s 0 0 1 c 41 57 m -26 Y s 33 57 m 16 X s 55 57 m -26 Y s
 55 57 m 11 X 4 -2 d 1 -1 d 1 -2 d -3 Y -1 -2 d -1 -1 d -4 -1 d -11 X s 64 45 m
 8 -14 d s 87 57 m -10 -26 d s 87 57 m 9 -26 d s 81 40 m 12 X s 102 57 m -26 Y s
 102 57 m 16 X s 102 45 m 10 X s 124 57 m -26 Y s 124 57 m 15 X s 124 45 m 9 X s
 145 57 m -26 Y s 172 51 m -2 2 d -2 2 d -2 2 d -5 X -3 -2 d -2 -2 d -1 -2 d -1
 -4 d -6 Y 1 -4 d 1 -2 d 2 -2 d 3 -2 d 5 X 2 2 d 2 2 d 2 2 d s 200 61 m -2 -2 d
 -2 -4 d -3 -4 d -1 -6 d -5 Y 1 -6 d 3 -5 d 2 -4 d 2 -2 d s 206 48 m 7 -17 d s
 221 48 m -8 -17 d s 227 41 m 14 X 2 Y -1 3 d -1 1 d -3 1 d -3 X -3 -1 d -2 -2 d
 -1 -4 d -2 Y 1 -4 d 2 -2 d 3 -2 d 3 X 3 2 d 2 2 d s 249 48 m -17 Y s 249 41 m 2
 4 d 2 2 d 2 1 d 4 X s 277 45 m -1 2 d -4 1 d -3 X -4 -1 d -1 -2 d 1 -3 d 2 -1 d
 6 -1 d 3 -1 d 1 -3 d -1 Y -1 -2 d -4 -2 d -3 X -4 2 d -1 2 d s 284 57 m 1 -2 d
 2 2 d -2 1 d -1 -1 d cl s 285 48 m -17 Y s 300 48 m -3 -1 d -2 -2 d -1 -4 d -2
 Y 1 -4 d 2 -2 d 3 -2 d 3 X 3 2 d 2 2 d 1 4 d 2 Y -1 4 d -2 2 d -3 1 d -3 X cl s
 318 48 m -17 Y s 318 43 m 3 4 d 3 1 d 3 X 3 -1 d 1 -4 d -12 Y s 355 52 m 2 1 d
 4 4 d -26 Y s 378 34 m -2 -1 d 2 -2 d 1 2 d -1 1 d cl s 393 57 m -3 -2 d -2 -2
 d -2 Y 2 -3 d 2 -1 d 5 -1 d 3 -1 d 3 -3 d 1 -2 d -4 Y -1 -2 d -1 -1 d -4 -2 d
 -5 X -3 2 d -2 1 d -1 2 d 4 Y 1 2 d 3 3 d 3 1 d 5 1 d 3 1 d 1 3 d 2 Y -1 2 d -4
 2 d -5 X cl s 418 57 m -3 -2 d -3 -3 d -1 -6 d -4 Y 1 -6 d 3 -3 d 3 -2 d 3 X 3
 2 d 3 3 d 1 6 d 4 Y -1 6 d -3 3 d -3 2 d -3 X cl s 435 61 m 2 -2 d 3 -4 d 2 -4
 d 1 -6 d -5 Y -1 -6 d -2 -5 d -3 -4 d -2 -2 d s 464 41 m 14 X 2 Y -1 3 d -1 1 d
 -3 1 d -3 X -3 -1 d -2 -2 d -1 -4 d -2 Y 1 -4 d 2 -2 d 3 -2 d 3 X 3 2 d 2 2 d s
 484 48 m 7 -17 d s 499 48 m -8 -17 d s 505 41 m 14 X 2 Y -1 3 d -1 1 d -3 1 d
 -3 X -3 -1 d -2 -2 d -1 -4 d -2 Y 1 -4 d 2 -2 d 3 -2 d 3 X 3 2 d 2 2 d s 527 48
 m -17 Y s 527 43 m 4 4 d 2 1 d 4 X 2 -1 d 1 -4 d -12 Y s 551 57 m -21 Y 1 -3 d
 3 -2 d 2 X s 548 48 m 8 X s 590 57 m -26 Y s 590 45 m -3 2 d -2 1 d -4 X -2 -1
 d -3 -2 d -1 -4 d -2 Y 1 -4 d 3 -2 d 2 -2 d 4 X 2 2 d 3 2 d s 598 57 m 1 -2 d 1
 2 d -1 1 d -1 -1 d cl s 599 48 m -17 Y s 621 45 m -1 2 d -4 1 d -4 X -3 -1 d -1
 -2 d 1 -3 d 2 -1 d 6 -1 d 3 -1 d 1 -3 d -1 Y -1 -2 d -4 -2 d -4 X -3 2 d -1 2 d
 s 629 48 m -25 Y s 629 45 m 2 2 d 3 1 d 3 X 3 -1 d 2 -2 d 1 -4 d -2 Y -1 -4 d
 -2 -2 d -3 -2 d -3 X -3 2 d -2 2 d s 652 57 m -26 Y s 675 48 m -17 Y s 675 45 m
 -3 2 d -2 1 d -4 X -2 -1 d -3 -2 d -1 -4 d -2 Y 1 -4 d 3 -2 d 2 -2 d 4 X 2 2 d
 3 2 d s 682 48 m 7 -17 d s 696 48 m -7 -17 d -2 -4 d -3 -3 d -2 -1 d -1 X s
 3043 54 m -1 -2 d -2 -3 d -2 -3 d -1 -5 d -3 Y 1 -5 d 2 -3 d 2 -3 d 1 -2 d s
 3054 50 m -3 -1 d -1 -2 d -1 -5 d -2 Y 1 -5 d 1 -3 d 3 -1 d 2 X 3 1 d 1 3 d 1 5
 d 2 Y -1 5 d -1 2 d -3 1 d -2 X cl s 3072 50 m -3 -1 d -1 -2 d -1 -5 d -2 Y 1
 -5 d 1 -3 d 3 -1 d 2 X 3 1 d 1 3 d 1 5 d 2 Y -1 5 d -1 2 d -3 1 d -2 X cl s
 3094 50 m -9 -12 d 13 X s 3094 50 m -19 Y s 3103 54 m 1 -2 d 2 -3 d 2 -3 d 1 -5
 d -3 Y -1 -5 d -2 -3 d -2 -3 d -1 -2 d s 2516 1784 314 223 C 3144 3144 0 0 C NC
 black 314 223 m 2516 X s 314 248 m -25 Y s 419 236 m -13 Y s 524 236 m -13 Y s
 629 236 m -13 Y s 734 236 m -13 Y s 838 248 m -25 Y s 943 236 m -13 Y s 1048
 236 m -13 Y s 1153 236 m -13 Y s 1258 236 m -13 Y s 1362 248 m -25 Y s 1467 236
 m -13 Y s 1572 236 m -13 Y s 1677 236 m -13 Y s 1782 236 m -13 Y s 1886 248 m
 -25 Y s 1991 236 m -13 Y s 2096 236 m -13 Y s 2201 236 m -13 Y s 2306 236 m -13
 Y s 2410 248 m -25 Y s 2410 248 m -25 Y s 2515 236 m -13 Y s 2620 236 m -13 Y s
 2725 236 m -13 Y s 2830 236 m -13 Y s 313 281 m -2 -1 d -2 -3 d -1 -5 d -3 Y 1
 -4 d 2 -3 d 2 -1 d 2 X 3 1 d 2 3 d 1 4 d 3 Y -1 5 d -2 3 d -3 1 d -2 X cl s 806
 277 m 2 1 d 3 3 d -20 Y s 828 281 m -3 -1 d -2 -3 d -1 -5 d -3 Y 1 -4 d 2 -3 d
 3 -1 d 2 X 3 1 d 2 3 d 1 4 d 3 Y -1 5 d -2 3 d -3 1 d -2 X cl s 847 281 m -3 -1
 d -2 -3 d -1 -5 d -3 Y 1 -4 d 2 -3 d 3 -1 d 2 X 3 1 d 2 3 d 1 4 d 3 Y -1 5 d -2
 3 d -3 1 d -2 X cl s 866 281 m -3 -1 d -2 -3 d -1 -5 d -3 Y 1 -4 d 2 -3 d 3 -1
 d 2 X 3 1 d 2 3 d 1 4 d 3 Y -1 5 d -2 3 d -3 1 d -2 X cl s 1328 276 m 1 Y 1 2 d
 1 1 d 2 1 d 4 X 1 -1 d 1 -1 d 1 -2 d -2 Y -1 -2 d -1 -3 d -10 -9 d 13 X s 1352
 281 m -3 -1 d -2 -3 d -1 -5 d -3 Y 1 -4 d 2 -3 d 3 -1 d 2 X 3 1 d 2 3 d 1 4 d 3
 Y -1 5 d -2 3 d -3 1 d -2 X cl s 1371 281 m -3 -1 d -2 -3 d -1 -5 d -3 Y 1 -4 d
 2 -3 d 3 -1 d 2 X 3 1 d 2 3 d 1 4 d 3 Y -1 5 d -2 3 d -3 1 d -2 X cl s 1390 281
 m -3 -1 d -2 -3 d -1 -5 d -3 Y 1 -4 d 2 -3 d 3 -1 d 2 X 3 1 d 2 3 d 1 4 d 3 Y
 -1 5 d -2 3 d -3 1 d -2 X cl s 1853 281 m 10 X -5 -8 d 3 X 1 -1 d 1 -1 d 1 -3 d
 -1 Y -1 -3 d -2 -2 d -2 -1 d -3 X -3 1 d -1 1 d -1 2 d s 1876 281 m -3 -1 d -2
 -3 d -1 -5 d -3 Y 1 -4 d 2 -3 d 3 -1 d 2 X 3 1 d 2 3 d 1 4 d 3 Y -1 5 d -2 3 d
 -3 1 d -2 X cl s 1895 281 m -3 -1 d -2 -3 d -1 -5 d -3 Y 1 -4 d 2 -3 d 3 -1 d 2
 X 3 1 d 2 3 d 1 4 d 3 Y -1 5 d -2 3 d -3 1 d -2 X cl s 1914 281 m -3 -1 d -2 -3
 d -1 -5 d -3 Y 1 -4 d 2 -3 d 3 -1 d 2 X 3 1 d 2 3 d 1 4 d 3 Y -1 5 d -2 3 d -3
 1 d -2 X cl s 2385 281 m -10 -14 d 14 X s 2385 281 m -20 Y s 2400 281 m -3 -1 d
 -2 -3 d -1 -5 d -3 Y 1 -4 d 2 -3 d 3 -1 d 2 X 3 1 d 2 3 d 1 4 d 3 Y -1 5 d -2 3
 d -3 1 d -2 X cl s 2419 281 m -3 -1 d -2 -3 d -1 -5 d -3 Y 1 -4 d 2 -3 d 3 -1 d
 2 X 3 1 d 2 3 d 1 4 d 3 Y -1 5 d -2 3 d -3 1 d -2 X cl s 2438 281 m -3 -1 d -2
 -3 d -1 -5 d -3 Y 1 -4 d 2 -3 d 3 -1 d 2 X 3 1 d 2 3 d 1 4 d 3 Y -1 5 d -2 3 d
 -3 1 d -2 X cl s 3144 3144 0 0 C NC 314 2007 m 2516 X s 314 1982 m 25 Y s 419
 1995 m 12 Y s 524 1995 m 12 Y s 629 1995 m 12 Y s 734 1995 m 12 Y s 838 1982 m
 25 Y s 943 1995 m 12 Y s 1048 1995 m 12 Y s 1153 1995 m 12 Y s 1258 1995 m 12 Y
 s 1362 1982 m 25 Y s 1467 1995 m 12 Y s 1572 1995 m 12 Y s 1677 1995 m 12 Y s
 1782 1995 m 12 Y s 1886 1982 m 25 Y s 1991 1995 m 12 Y s 2096 1995 m 12 Y s
 2201 1995 m 12 Y s 2306 1995 m 12 Y s 2410 1982 m 25 Y s 2410 1982 m 25 Y s
 2515 1995 m 12 Y s 2620 1995 m 12 Y s 2725 1995 m 12 Y s 2830 1995 m 12 Y s
 3144 3144 0 0 C NC 314 223 m 1784 Y s 340 590 m -26 X s 327 695 m -13 X s 327
 800 m -13 X s 327 905 m -13 X s 327 1010 m -13 X s 340 1115 m -26 X s 327 1220
 m -13 X s 327 1325 m -13 X s 327 1430 m -13 X s 327 1535 m -13 X s 340 1640 m
 -26 X s 340 590 m -26 X s 327 485 m -13 X s 327 381 m -13 X s 327 276 m -13 X s
 340 1640 m -26 X s 327 1745 m -13 X s 327 1850 m -13 X s 327 1955 m -13 X s
 3144 3144 0 0 C NC 2830 223 m 1784 Y s 2804 590 m 26 X s 2817 695 m 13 X s 2817
 800 m 13 X s 2817 905 m 13 X s 2817 1010 m 13 X s 2804 1115 m 26 X s 2817 1220
 m 13 X s 2817 1325 m 13 X s 2817 1430 m 13 X s 2817 1535 m 13 X s 2804 1640 m
 26 X s 2804 590 m 26 X s 2817 485 m 13 X s 2817 381 m 13 X s 2817 276 m 13 X s
 2804 1640 m 26 X s 2817 1745 m 13 X s 2817 1850 m 13 X s 2817 1955 m 13 X s
 2713 589 m 18 X s 2740 597 m 2 1 d 3 2 d -20 Y s 2762 600 m -3 X -2 -3 d -1 -5
 d -3 Y 1 -5 d 2 -3 d 3 -1 d 2 X 3 1 d 2 3 d 1 5 d 3 Y -1 5 d -2 3 d -5 X cl s
 2781 600 m -3 X -1 -3 d -1 -5 d -3 Y 1 -5 d 1 -3 d 3 -1 d 2 X 3 1 d 2 3 d 1 5 d
 3 Y -1 5 d -2 3 d -5 X cl s 2781 1125 m -3 -1 d -1 -3 d -1 -4 d -3 Y 1 -5 d 1
 -3 d 3 -1 d 2 X 3 1 d 2 3 d 1 5 d 3 Y -1 4 d -2 3 d -3 1 d -2 X cl s 2740 1646
 m 2 1 d 3 3 d -20 Y s 2762 1650 m -3 -1 d -2 -3 d -1 -4 d -3 Y 1 -5 d 2 -3 d 3
 -1 d 2 X 3 1 d 2 3 d 1 5 d 3 Y -1 4 d -2 3 d -3 1 d -2 X cl s 2781 1650 m -3 -1
 d -1 -3 d -1 -4 d -3 Y 1 -5 d 1 -3 d 3 -1 d 2 X 3 1 d 2 3 d 1 5 d 3 Y -1 4 d -2
 3 d -3 1 d -2 X cl s 3144 3144 0 0 C NC gr 
showpage
 gr 
%%Trailer
%%Pages: 1
 gr  gr 
%%EOF
