%!PS-Adobe-2.0
%%Title: DC01X1i10.eps
%%Creator: gnuplot 4.2 patchlevel 6 
%%CreationDate: Sun Sep 11 14:19:56 2016
%%DocumentFonts: (atend)
%%BoundingBox: 50 50 554 770
%%Orientation: Landscape
%%Pages: (atend)
%%EndComments
%%BeginProlog
/gnudict 256 dict def
gnudict begin
%
% The following 6 true/false flags may be edited by hand if required
% The unit line width may also be changed
%
/Color false def
/Blacktext false def
/Solid false def
/Dashlength 1 def
/Landscape true def
/Level1 false def
/Rounded false def
/TransparentPatterns false def
/gnulinewidth 5.000 def
/userlinewidth gnulinewidth def
%
/vshift -46 def
/dl1 {
  10.0 Dashlength mul mul
  Rounded { currentlinewidth 0.75 mul sub dup 0 le { pop 0.01 } if } if
} def
/dl2 {
  10.0 Dashlength mul mul
  Rounded { currentlinewidth 0.75 mul add } if
} def
/hpt_ 31.5 def
/vpt_ 31.5 def
/hpt hpt_ def
/vpt vpt_ def
Level1 {} {
/SDict 10 dict def
systemdict /pdfmark known not {
  userdict /pdfmark systemdict /cleartomark get put
} if
SDict begin [
  /Title (DC01X1i10.eps)
  /Subject (gnuplot plot)
  /Creator (gnuplot 4.2 patchlevel 6 )
  /Author (na58dst2 compass,892 R-D14,+41227676535,)
%  /Producer (gnuplot)
%  /Keywords ()
  /CreationDate (Sun Sep 11 14:19:56 2016)
  /DOCINFO pdfmark
end
} ifelse
%
% Gnuplot Prolog Version 4.2 (August 2006)
%
/M {moveto} bind def
/L {lineto} bind def
/R {rmoveto} bind def
/V {rlineto} bind def
/N {newpath moveto} bind def
/Z {closepath} bind def
/C {setrgbcolor} bind def
/f {rlineto fill} bind def
/vpt2 vpt 2 mul def
/hpt2 hpt 2 mul def
/Lshow {currentpoint stroke M 0 vshift R 
	Blacktext {gsave 0 setgray show grestore} {show} ifelse} def
/Rshow {currentpoint stroke M dup stringwidth pop neg vshift R
	Blacktext {gsave 0 setgray show grestore} {show} ifelse} def
/Cshow {currentpoint stroke M dup stringwidth pop -2 div vshift R 
	Blacktext {gsave 0 setgray show grestore} {show} ifelse} def
/UP {dup vpt_ mul /vpt exch def hpt_ mul /hpt exch def
  /hpt2 hpt 2 mul def /vpt2 vpt 2 mul def} def
/DL {Color {setrgbcolor Solid {pop []} if 0 setdash}
 {pop pop pop 0 setgray Solid {pop []} if 0 setdash} ifelse} def
/BL {stroke userlinewidth 2 mul setlinewidth
	Rounded {1 setlinejoin 1 setlinecap} if} def
/AL {stroke userlinewidth 2 div setlinewidth
	Rounded {1 setlinejoin 1 setlinecap} if} def
/UL {dup gnulinewidth mul /userlinewidth exch def
	dup 1 lt {pop 1} if 10 mul /udl exch def} def
/PL {stroke userlinewidth setlinewidth
	Rounded {1 setlinejoin 1 setlinecap} if} def
% Default Line colors
/LCw {1 1 1} def
/LCb {0 0 0} def
/LCa {0 0 0} def
/LC0 {1 0 0} def
/LC1 {0 1 0} def
/LC2 {0 0 1} def
/LC3 {1 0 1} def
/LC4 {0 1 1} def
/LC5 {1 1 0} def
/LC6 {0 0 0} def
/LC7 {1 0.3 0} def
/LC8 {0.5 0.5 0.5} def
% Default Line Types
/LTw {PL [] 1 setgray} def
/LTb {BL [] LCb DL} def
/LTa {AL [1 udl mul 2 udl mul] 0 setdash LCa setrgbcolor} def
/LT0 {PL [] LC0 DL} def
/LT1 {PL [4 dl1 2 dl2] LC1 DL} def
/LT2 {PL [2 dl1 3 dl2] LC2 DL} def
/LT3 {PL [1 dl1 1.5 dl2] LC3 DL} def
/LT4 {PL [6 dl1 2 dl2 1 dl1 2 dl2] LC4 DL} def
/LT5 {PL [3 dl1 3 dl2 1 dl1 3 dl2] LC5 DL} def
/LT6 {PL [2 dl1 2 dl2 2 dl1 6 dl2] LC6 DL} def
/LT7 {PL [1 dl1 2 dl2 6 dl1 2 dl2 1 dl1 2 dl2] LC7 DL} def
/LT8 {PL [2 dl1 2 dl2 2 dl1 2 dl2 2 dl1 2 dl2 2 dl1 4 dl2] LC8 DL} def
/Pnt {stroke [] 0 setdash gsave 1 setlinecap M 0 0 V stroke grestore} def
/Dia {stroke [] 0 setdash 2 copy vpt add M
  hpt neg vpt neg V hpt vpt neg V
  hpt vpt V hpt neg vpt V closepath stroke
  Pnt} def
/Pls {stroke [] 0 setdash vpt sub M 0 vpt2 V
  currentpoint stroke M
  hpt neg vpt neg R hpt2 0 V stroke
 } def
/Box {stroke [] 0 setdash 2 copy exch hpt sub exch vpt add M
  0 vpt2 neg V hpt2 0 V 0 vpt2 V
  hpt2 neg 0 V closepath stroke
  Pnt} def
/Crs {stroke [] 0 setdash exch hpt sub exch vpt add M
  hpt2 vpt2 neg V currentpoint stroke M
  hpt2 neg 0 R hpt2 vpt2 V stroke} def
/TriU {stroke [] 0 setdash 2 copy vpt 1.12 mul add M
  hpt neg vpt -1.62 mul V
  hpt 2 mul 0 V
  hpt neg vpt 1.62 mul V closepath stroke
  Pnt} def
/Star {2 copy Pls Crs} def
/BoxF {stroke [] 0 setdash exch hpt sub exch vpt add M
  0 vpt2 neg V hpt2 0 V 0 vpt2 V
  hpt2 neg 0 V closepath fill} def
/TriUF {stroke [] 0 setdash vpt 1.12 mul add M
  hpt neg vpt -1.62 mul V
  hpt 2 mul 0 V
  hpt neg vpt 1.62 mul V closepath fill} def
/TriD {stroke [] 0 setdash 2 copy vpt 1.12 mul sub M
  hpt neg vpt 1.62 mul V
  hpt 2 mul 0 V
  hpt neg vpt -1.62 mul V closepath stroke
  Pnt} def
/TriDF {stroke [] 0 setdash vpt 1.12 mul sub M
  hpt neg vpt 1.62 mul V
  hpt 2 mul 0 V
  hpt neg vpt -1.62 mul V closepath fill} def
/DiaF {stroke [] 0 setdash vpt add M
  hpt neg vpt neg V hpt vpt neg V
  hpt vpt V hpt neg vpt V closepath fill} def
/Pent {stroke [] 0 setdash 2 copy gsave
  translate 0 hpt M 4 {72 rotate 0 hpt L} repeat
  closepath stroke grestore Pnt} def
/PentF {stroke [] 0 setdash gsave
  translate 0 hpt M 4 {72 rotate 0 hpt L} repeat
  closepath fill grestore} def
/Circle {stroke [] 0 setdash 2 copy
  hpt 0 360 arc stroke Pnt} def
/CircleF {stroke [] 0 setdash hpt 0 360 arc fill} def
/C0 {BL [] 0 setdash 2 copy moveto vpt 90 450 arc} bind def
/C1 {BL [] 0 setdash 2 copy moveto
	2 copy vpt 0 90 arc closepath fill
	vpt 0 360 arc closepath} bind def
/C2 {BL [] 0 setdash 2 copy moveto
	2 copy vpt 90 180 arc closepath fill
	vpt 0 360 arc closepath} bind def
/C3 {BL [] 0 setdash 2 copy moveto
	2 copy vpt 0 180 arc closepath fill
	vpt 0 360 arc closepath} bind def
/C4 {BL [] 0 setdash 2 copy moveto
	2 copy vpt 180 270 arc closepath fill
	vpt 0 360 arc closepath} bind def
/C5 {BL [] 0 setdash 2 copy moveto
	2 copy vpt 0 90 arc
	2 copy moveto
	2 copy vpt 180 270 arc closepath fill
	vpt 0 360 arc} bind def
/C6 {BL [] 0 setdash 2 copy moveto
	2 copy vpt 90 270 arc closepath fill
	vpt 0 360 arc closepath} bind def
/C7 {BL [] 0 setdash 2 copy moveto
	2 copy vpt 0 270 arc closepath fill
	vpt 0 360 arc closepath} bind def
/C8 {BL [] 0 setdash 2 copy moveto
	2 copy vpt 270 360 arc closepath fill
	vpt 0 360 arc closepath} bind def
/C9 {BL [] 0 setdash 2 copy moveto
	2 copy vpt 270 450 arc closepath fill
	vpt 0 360 arc closepath} bind def
/C10 {BL [] 0 setdash 2 copy 2 copy moveto vpt 270 360 arc closepath fill
	2 copy moveto
	2 copy vpt 90 180 arc closepath fill
	vpt 0 360 arc closepath} bind def
/C11 {BL [] 0 setdash 2 copy moveto
	2 copy vpt 0 180 arc closepath fill
	2 copy moveto
	2 copy vpt 270 360 arc closepath fill
	vpt 0 360 arc closepath} bind def
/C12 {BL [] 0 setdash 2 copy moveto
	2 copy vpt 180 360 arc closepath fill
	vpt 0 360 arc closepath} bind def
/C13 {BL [] 0 setdash 2 copy moveto
	2 copy vpt 0 90 arc closepath fill
	2 copy moveto
	2 copy vpt 180 360 arc closepath fill
	vpt 0 360 arc closepath} bind def
/C14 {BL [] 0 setdash 2 copy moveto
	2 copy vpt 90 360 arc closepath fill
	vpt 0 360 arc} bind def
/C15 {BL [] 0 setdash 2 copy vpt 0 360 arc closepath fill
	vpt 0 360 arc closepath} bind def
/Rec {newpath 4 2 roll moveto 1 index 0 rlineto 0 exch rlineto
	neg 0 rlineto closepath} bind def
/Square {dup Rec} bind def
/Bsquare {vpt sub exch vpt sub exch vpt2 Square} bind def
/S0 {BL [] 0 setdash 2 copy moveto 0 vpt rlineto BL Bsquare} bind def
/S1 {BL [] 0 setdash 2 copy vpt Square fill Bsquare} bind def
/S2 {BL [] 0 setdash 2 copy exch vpt sub exch vpt Square fill Bsquare} bind def
/S3 {BL [] 0 setdash 2 copy exch vpt sub exch vpt2 vpt Rec fill Bsquare} bind def
/S4 {BL [] 0 setdash 2 copy exch vpt sub exch vpt sub vpt Square fill Bsquare} bind def
/S5 {BL [] 0 setdash 2 copy 2 copy vpt Square fill
	exch vpt sub exch vpt sub vpt Square fill Bsquare} bind def
/S6 {BL [] 0 setdash 2 copy exch vpt sub exch vpt sub vpt vpt2 Rec fill Bsquare} bind def
/S7 {BL [] 0 setdash 2 copy exch vpt sub exch vpt sub vpt vpt2 Rec fill
	2 copy vpt Square fill Bsquare} bind def
/S8 {BL [] 0 setdash 2 copy vpt sub vpt Square fill Bsquare} bind def
/S9 {BL [] 0 setdash 2 copy vpt sub vpt vpt2 Rec fill Bsquare} bind def
/S10 {BL [] 0 setdash 2 copy vpt sub vpt Square fill 2 copy exch vpt sub exch vpt Square fill
	Bsquare} bind def
/S11 {BL [] 0 setdash 2 copy vpt sub vpt Square fill 2 copy exch vpt sub exch vpt2 vpt Rec fill
	Bsquare} bind def
/S12 {BL [] 0 setdash 2 copy exch vpt sub exch vpt sub vpt2 vpt Rec fill Bsquare} bind def
/S13 {BL [] 0 setdash 2 copy exch vpt sub exch vpt sub vpt2 vpt Rec fill
	2 copy vpt Square fill Bsquare} bind def
/S14 {BL [] 0 setdash 2 copy exch vpt sub exch vpt sub vpt2 vpt Rec fill
	2 copy exch vpt sub exch vpt Square fill Bsquare} bind def
/S15 {BL [] 0 setdash 2 copy Bsquare fill Bsquare} bind def
/D0 {gsave translate 45 rotate 0 0 S0 stroke grestore} bind def
/D1 {gsave translate 45 rotate 0 0 S1 stroke grestore} bind def
/D2 {gsave translate 45 rotate 0 0 S2 stroke grestore} bind def
/D3 {gsave translate 45 rotate 0 0 S3 stroke grestore} bind def
/D4 {gsave translate 45 rotate 0 0 S4 stroke grestore} bind def
/D5 {gsave translate 45 rotate 0 0 S5 stroke grestore} bind def
/D6 {gsave translate 45 rotate 0 0 S6 stroke grestore} bind def
/D7 {gsave translate 45 rotate 0 0 S7 stroke grestore} bind def
/D8 {gsave translate 45 rotate 0 0 S8 stroke grestore} bind def
/D9 {gsave translate 45 rotate 0 0 S9 stroke grestore} bind def
/D10 {gsave translate 45 rotate 0 0 S10 stroke grestore} bind def
/D11 {gsave translate 45 rotate 0 0 S11 stroke grestore} bind def
/D12 {gsave translate 45 rotate 0 0 S12 stroke grestore} bind def
/D13 {gsave translate 45 rotate 0 0 S13 stroke grestore} bind def
/D14 {gsave translate 45 rotate 0 0 S14 stroke grestore} bind def
/D15 {gsave translate 45 rotate 0 0 S15 stroke grestore} bind def
/DiaE {stroke [] 0 setdash vpt add M
  hpt neg vpt neg V hpt vpt neg V
  hpt vpt V hpt neg vpt V closepath stroke} def
/BoxE {stroke [] 0 setdash exch hpt sub exch vpt add M
  0 vpt2 neg V hpt2 0 V 0 vpt2 V
  hpt2 neg 0 V closepath stroke} def
/TriUE {stroke [] 0 setdash vpt 1.12 mul add M
  hpt neg vpt -1.62 mul V
  hpt 2 mul 0 V
  hpt neg vpt 1.62 mul V closepath stroke} def
/TriDE {stroke [] 0 setdash vpt 1.12 mul sub M
  hpt neg vpt 1.62 mul V
  hpt 2 mul 0 V
  hpt neg vpt -1.62 mul V closepath stroke} def
/PentE {stroke [] 0 setdash gsave
  translate 0 hpt M 4 {72 rotate 0 hpt L} repeat
  closepath stroke grestore} def
/CircE {stroke [] 0 setdash 
  hpt 0 360 arc stroke} def
/Opaque {gsave closepath 1 setgray fill grestore 0 setgray closepath} def
/DiaW {stroke [] 0 setdash vpt add M
  hpt neg vpt neg V hpt vpt neg V
  hpt vpt V hpt neg vpt V Opaque stroke} def
/BoxW {stroke [] 0 setdash exch hpt sub exch vpt add M
  0 vpt2 neg V hpt2 0 V 0 vpt2 V
  hpt2 neg 0 V Opaque stroke} def
/TriUW {stroke [] 0 setdash vpt 1.12 mul add M
  hpt neg vpt -1.62 mul V
  hpt 2 mul 0 V
  hpt neg vpt 1.62 mul V Opaque stroke} def
/TriDW {stroke [] 0 setdash vpt 1.12 mul sub M
  hpt neg vpt 1.62 mul V
  hpt 2 mul 0 V
  hpt neg vpt -1.62 mul V Opaque stroke} def
/PentW {stroke [] 0 setdash gsave
  translate 0 hpt M 4 {72 rotate 0 hpt L} repeat
  Opaque stroke grestore} def
/CircW {stroke [] 0 setdash 
  hpt 0 360 arc Opaque stroke} def
/BoxFill {gsave Rec 1 setgray fill grestore} def
/Density {
  /Fillden exch def
  currentrgbcolor
  /ColB exch def /ColG exch def /ColR exch def
  /ColR ColR Fillden mul Fillden sub 1 add def
  /ColG ColG Fillden mul Fillden sub 1 add def
  /ColB ColB Fillden mul Fillden sub 1 add def
  ColR ColG ColB setrgbcolor} def
/BoxColFill {gsave Rec PolyFill} def
/PolyFill {gsave Density fill grestore grestore} def
/h {rlineto rlineto rlineto gsave closepath fill grestore} bind def
%
% PostScript Level 1 Pattern Fill routine for rectangles
% Usage: x y w h s a XX PatternFill
%	x,y = lower left corner of box to be filled
%	w,h = width and height of box
%	  a = angle in degrees between lines and x-axis
%	 XX = 0/1 for no/yes cross-hatch
%
/PatternFill {gsave /PFa [ 9 2 roll ] def
  PFa 0 get PFa 2 get 2 div add PFa 1 get PFa 3 get 2 div add translate
  PFa 2 get -2 div PFa 3 get -2 div PFa 2 get PFa 3 get Rec
  gsave 1 setgray fill grestore clip
  currentlinewidth 0.5 mul setlinewidth
  /PFs PFa 2 get dup mul PFa 3 get dup mul add sqrt def
  0 0 M PFa 5 get rotate PFs -2 div dup translate
  0 1 PFs PFa 4 get div 1 add floor cvi
	{PFa 4 get mul 0 M 0 PFs V} for
  0 PFa 6 get ne {
	0 1 PFs PFa 4 get div 1 add floor cvi
	{PFa 4 get mul 0 2 1 roll M PFs 0 V} for
 } if
  stroke grestore} def
%
/languagelevel where
 {pop languagelevel} {1} ifelse
 2 lt
	{/InterpretLevel1 true def}
	{/InterpretLevel1 Level1 def}
 ifelse
%
% PostScript level 2 pattern fill definitions
%
/Level2PatternFill {
/Tile8x8 {/PaintType 2 /PatternType 1 /TilingType 1 /BBox [0 0 8 8] /XStep 8 /YStep 8}
	bind def
/KeepColor {currentrgbcolor [/Pattern /DeviceRGB] setcolorspace} bind def
<< Tile8x8
 /PaintProc {0.5 setlinewidth pop 0 0 M 8 8 L 0 8 M 8 0 L stroke} 
>> matrix makepattern
/Pat1 exch def
<< Tile8x8
 /PaintProc {0.5 setlinewidth pop 0 0 M 8 8 L 0 8 M 8 0 L stroke
	0 4 M 4 8 L 8 4 L 4 0 L 0 4 L stroke}
>> matrix makepattern
/Pat2 exch def
<< Tile8x8
 /PaintProc {0.5 setlinewidth pop 0 0 M 0 8 L
	8 8 L 8 0 L 0 0 L fill}
>> matrix makepattern
/Pat3 exch def
<< Tile8x8
 /PaintProc {0.5 setlinewidth pop -4 8 M 8 -4 L
	0 12 M 12 0 L stroke}
>> matrix makepattern
/Pat4 exch def
<< Tile8x8
 /PaintProc {0.5 setlinewidth pop -4 0 M 8 12 L
	0 -4 M 12 8 L stroke}
>> matrix makepattern
/Pat5 exch def
<< Tile8x8
 /PaintProc {0.5 setlinewidth pop -2 8 M 4 -4 L
	0 12 M 8 -4 L 4 12 M 10 0 L stroke}
>> matrix makepattern
/Pat6 exch def
<< Tile8x8
 /PaintProc {0.5 setlinewidth pop -2 0 M 4 12 L
	0 -4 M 8 12 L 4 -4 M 10 8 L stroke}
>> matrix makepattern
/Pat7 exch def
<< Tile8x8
 /PaintProc {0.5 setlinewidth pop 8 -2 M -4 4 L
	12 0 M -4 8 L 12 4 M 0 10 L stroke}
>> matrix makepattern
/Pat8 exch def
<< Tile8x8
 /PaintProc {0.5 setlinewidth pop 0 -2 M 12 4 L
	-4 0 M 12 8 L -4 4 M 8 10 L stroke}
>> matrix makepattern
/Pat9 exch def
/Pattern1 {PatternBgnd KeepColor Pat1 setpattern} bind def
/Pattern2 {PatternBgnd KeepColor Pat2 setpattern} bind def
/Pattern3 {PatternBgnd KeepColor Pat3 setpattern} bind def
/Pattern4 {PatternBgnd KeepColor Landscape {Pat5} {Pat4} ifelse setpattern} bind def
/Pattern5 {PatternBgnd KeepColor Landscape {Pat4} {Pat5} ifelse setpattern} bind def
/Pattern6 {PatternBgnd KeepColor Landscape {Pat9} {Pat6} ifelse setpattern} bind def
/Pattern7 {PatternBgnd KeepColor Landscape {Pat8} {Pat7} ifelse setpattern} bind def
} def
%
%
%End of PostScript Level 2 code
%
/PatternBgnd {
  TransparentPatterns {} {gsave 1 setgray fill grestore} ifelse
} def
%
% Substitute for Level 2 pattern fill codes with
% grayscale if Level 2 support is not selected.
%
/Level1PatternFill {
/Pattern1 {0.250 Density} bind def
/Pattern2 {0.500 Density} bind def
/Pattern3 {0.750 Density} bind def
/Pattern4 {0.125 Density} bind def
/Pattern5 {0.375 Density} bind def
/Pattern6 {0.625 Density} bind def
/Pattern7 {0.875 Density} bind def
} def
%
% Now test for support of Level 2 code
%
Level1 {Level1PatternFill} {Level2PatternFill} ifelse
%
/Symbol-Oblique /Symbol findfont [1 0 .167 1 0 0] makefont
dup length dict begin {1 index /FID eq {pop pop} {def} ifelse} forall
currentdict end definefont pop
end
%%EndProlog
%%Page: 1 1
gnudict begin
gsave
50 50 translate
0.100 0.100 scale
90 rotate
0 -5040 translate
0 setgray
newpath
(Helvetica) findfont 140 scalefont setfont
1.000 UL
LTb
1.000 UL
LTa
1106 2968 M
5884 0 V
stroke
LTb
1106 2968 M
63 0 V
5821 0 R
-63 0 V
-5905 0 R
( 0.249) Rshow
1.000 UL
LTb
1.000 UL
LTa
1106 3152 M
5884 0 V
stroke
LTb
1106 3152 M
63 0 V
5821 0 R
-63 0 V
-5905 0 R
( 0.2495) Rshow
1.000 UL
LTb
1.000 UL
LTa
1106 3335 M
5884 0 V
stroke
LTb
1106 3335 M
63 0 V
5821 0 R
-63 0 V
-5905 0 R
( 0.25) Rshow
1.000 UL
LTb
1.000 UL
LTa
1106 3519 M
5884 0 V
stroke
LTb
1106 3519 M
63 0 V
5821 0 R
-63 0 V
-5905 0 R
( 0.2505) Rshow
1.000 UL
LTb
1.000 UL
LTa
1106 3702 M
5884 0 V
stroke
LTb
1106 3702 M
63 0 V
5821 0 R
-63 0 V
-5905 0 R
( 0.251) Rshow
1.000 UL
LTb
1.000 UL
LTa
1106 3886 M
5884 0 V
stroke
LTb
1106 3886 M
63 0 V
5821 0 R
-63 0 V
-5905 0 R
( 0.2515) Rshow
1.000 UL
LTb
1.000 UL
LTa
1106 4069 M
5884 0 V
stroke
LTb
1106 4069 M
63 0 V
5821 0 R
-63 0 V
-5905 0 R
( 0.252) Rshow
1.000 UL
LTb
1.000 UL
LTa
1106 4253 M
5884 0 V
stroke
LTb
1106 4253 M
63 0 V
5821 0 R
-63 0 V
-5905 0 R
( 0.2525) Rshow
1.000 UL
LTb
1.000 UL
LTa
1106 4436 M
5884 0 V
stroke
LTb
1106 4436 M
63 0 V
5821 0 R
-63 0 V
-5905 0 R
( 0.253) Rshow
1.000 UL
LTb
1.000 UL
LTa
1106 4620 M
5884 0 V
stroke
LTb
1106 4620 M
63 0 V
5821 0 R
-63 0 V
-5905 0 R
( 0.2535) Rshow
1.000 UL
LTb
1.000 UL
LTa
1106 2968 M
0 1652 V
stroke
LTb
1106 2968 M
0 63 V
0 1589 R
0 -63 V
0 -1729 R
( 0) Cshow
1.000 UL
LTb
1.000 UL
LTa
1694 2968 M
0 1652 V
stroke
LTb
1694 2968 M
0 63 V
0 1589 R
0 -63 V
0 -1729 R
( 1) Cshow
1.000 UL
LTb
1.000 UL
LTa
2283 2968 M
0 1652 V
stroke
LTb
2283 2968 M
0 63 V
0 1589 R
0 -63 V
0 -1729 R
( 2) Cshow
1.000 UL
LTb
1.000 UL
LTa
2871 2968 M
0 1652 V
stroke
LTb
2871 2968 M
0 63 V
0 1589 R
0 -63 V
0 -1729 R
( 3) Cshow
1.000 UL
LTb
1.000 UL
LTa
3460 2968 M
0 1652 V
stroke
LTb
3460 2968 M
0 63 V
0 1589 R
0 -63 V
0 -1729 R
( 4) Cshow
1.000 UL
LTb
1.000 UL
LTa
4048 2968 M
0 1652 V
stroke
LTb
4048 2968 M
0 63 V
0 1589 R
0 -63 V
0 -1729 R
( 5) Cshow
1.000 UL
LTb
1.000 UL
LTa
4636 2968 M
0 1652 V
stroke
LTb
4636 2968 M
0 63 V
0 1589 R
0 -63 V
0 -1729 R
( 6) Cshow
1.000 UL
LTb
1.000 UL
LTa
5225 2968 M
0 1652 V
stroke
LTb
5225 2968 M
0 63 V
0 1589 R
0 -63 V
0 -1729 R
( 7) Cshow
1.000 UL
LTb
1.000 UL
LTa
5813 2968 M
0 1652 V
stroke
LTb
5813 2968 M
0 63 V
0 1589 R
0 -63 V
0 -1729 R
( 8) Cshow
1.000 UL
LTb
1.000 UL
LTa
6402 2968 M
0 1652 V
stroke
LTb
6402 2968 M
0 63 V
0 1589 R
0 -63 V
0 -1729 R
( 9) Cshow
1.000 UL
LTb
1.000 UL
LTa
6990 2968 M
0 1652 V
stroke
LTb
6990 2968 M
0 63 V
0 1589 R
0 -63 V
0 -1729 R
( 10) Cshow
1.000 UL
LTb
1.000 UL
LTb
1106 4620 N
0 -1652 V
5884 0 V
0 1652 V
-5884 0 V
Z stroke
LCb setrgbcolor
280 3794 M
currentpoint gsave translate 90 rotate 0 0 M
(X coordinate) Cshow
grestore
LTb
LCb setrgbcolor
4048 2618 M
(iterations) Cshow
LTb
4048 4830 M
(DC01X1) Cshow
1.000 UP
1.000 UL
LTb
2.000 UP
2.000 UL
LT0
LC2 setrgbcolor
/Helvetica findfont 140 scalefont setfont
6990 3864 M
-588 194 V
-589 155 V
-588 345 V
4636 4326 L
4048 4183 L
3460 3680 L
-589 246 V
-588 -11 V
-589 129 V
1106 3093 L
6990 3864 CircleF
6402 4058 CircleF
5813 4213 CircleF
5225 4558 CircleF
4636 4326 CircleF
4048 4183 CircleF
3460 3680 CircleF
2871 3926 CircleF
2283 3915 CircleF
1694 4044 CircleF
1106 3093 CircleF
1.000 UL
LTb
1106 4620 N
0 -1652 V
5884 0 V
0 1652 V
-5884 0 V
Z stroke
1.000 UP
1.000 UL
LTb
1.000 UL
LTb
1.000 UL
LTa
1106 448 M
5884 0 V
stroke
LTb
1106 448 M
63 0 V
5821 0 R
-63 0 V
-5905 0 R
(-0.001) Rshow
1.000 UL
LTb
1.000 UL
LTa
1106 686 M
5884 0 V
stroke
LTb
1106 686 M
63 0 V
5821 0 R
-63 0 V
-5905 0 R
(-0.0005) Rshow
1.000 UL
LTb
1.000 UL
LTa
1106 924 M
5884 0 V
stroke
LTb
1106 924 M
63 0 V
5821 0 R
-63 0 V
-5905 0 R
( 0) Rshow
1.000 UL
LTb
1.000 UL
LTa
1106 1162 M
5884 0 V
stroke
LTb
1106 1162 M
63 0 V
5821 0 R
-63 0 V
-5905 0 R
( 0.0005) Rshow
1.000 UL
LTb
1.000 UL
LTa
1106 1400 M
5884 0 V
stroke
LTb
1106 1400 M
63 0 V
5821 0 R
-63 0 V
-5905 0 R
( 0.001) Rshow
1.000 UL
LTb
1.000 UL
LTa
1106 1638 M
5884 0 V
stroke
LTb
1106 1638 M
63 0 V
5821 0 R
-63 0 V
-5905 0 R
( 0.0015) Rshow
1.000 UL
LTb
1.000 UL
LTa
1106 1876 M
5884 0 V
stroke
LTb
1106 1876 M
63 0 V
5821 0 R
-63 0 V
-5905 0 R
( 0.002) Rshow
1.000 UL
LTb
1.000 UL
LTa
1106 2114 M
5884 0 V
stroke
LTb
1106 2114 M
63 0 V
5821 0 R
-63 0 V
-5905 0 R
( 0.0025) Rshow
1.000 UL
LTb
1.000 UL
LTa
1106 2352 M
5884 0 V
stroke
LTb
1106 2352 M
63 0 V
5821 0 R
-63 0 V
-5905 0 R
( 0.003) Rshow
1.000 UL
LTb
1.000 UL
LTa
1106 448 M
0 1904 V
stroke
LTb
1106 448 M
0 63 V
0 1841 R
0 -63 V
0 -1981 R
( 0) Cshow
1.000 UL
LTb
1.000 UL
LTa
1694 448 M
0 1904 V
stroke
LTb
1694 448 M
0 63 V
0 1841 R
0 -63 V
0 -1981 R
( 1) Cshow
1.000 UL
LTb
1.000 UL
LTa
2283 448 M
0 1904 V
stroke
LTb
2283 448 M
0 63 V
0 1841 R
0 -63 V
0 -1981 R
( 2) Cshow
1.000 UL
LTb
1.000 UL
LTa
2871 448 M
0 1904 V
stroke
LTb
2871 448 M
0 63 V
0 1841 R
0 -63 V
0 -1981 R
( 3) Cshow
1.000 UL
LTb
1.000 UL
LTa
3460 448 M
0 1904 V
stroke
LTb
3460 448 M
0 63 V
0 1841 R
0 -63 V
0 -1981 R
( 4) Cshow
1.000 UL
LTb
1.000 UL
LTa
4048 448 M
0 1904 V
stroke
LTb
4048 448 M
0 63 V
0 1841 R
0 -63 V
0 -1981 R
( 5) Cshow
1.000 UL
LTb
1.000 UL
LTa
4636 448 M
0 1904 V
stroke
LTb
4636 448 M
0 63 V
0 1841 R
0 -63 V
0 -1981 R
( 6) Cshow
1.000 UL
LTb
1.000 UL
LTa
5225 448 M
0 1904 V
stroke
LTb
5225 448 M
0 63 V
0 1841 R
0 -63 V
0 -1981 R
( 7) Cshow
1.000 UL
LTb
1.000 UL
LTa
5813 448 M
0 1904 V
stroke
LTb
5813 448 M
0 63 V
0 1841 R
0 -63 V
0 -1981 R
( 8) Cshow
1.000 UL
LTb
1.000 UL
LTa
6402 448 M
0 1904 V
stroke
LTb
6402 448 M
0 63 V
0 1841 R
0 -63 V
0 -1981 R
( 9) Cshow
1.000 UL
LTb
1.000 UL
LTa
6990 448 M
0 1904 V
stroke
LTb
6990 448 M
0 63 V
0 1841 R
0 -63 V
0 -1981 R
( 10) Cshow
1.000 UL
LTb
1.000 UL
LTb
1106 2352 N
0 -1904 V
5884 0 V
0 1904 V
-5884 0 V
Z stroke
LCb setrgbcolor
280 1400 M
currentpoint gsave translate 90 rotate 0 0 M
(X residual wrt previous coordinate) Cshow
grestore
LTb
LCb setrgbcolor
4048 98 M
(iterations) Cshow
LTb
1.000 UP
1.000 UL
LTb
2.000 UP
2.000 UL
LT0
LC0 setrgbcolor
/Helvetica findfont 140 scalefont setfont
6990 672 M
-588 52 V
5813 477 L
-588 747 V
4636 1110 L
-588 466 V
3460 605 L
2871 938 L
2283 757 L
1694 2157 L
1106 924 L
6990 672 CircleF
6402 724 CircleF
5813 477 CircleF
5225 1224 CircleF
4636 1110 CircleF
4048 1576 CircleF
3460 605 CircleF
2871 938 CircleF
2283 757 CircleF
1694 2157 CircleF
1106 924 CircleF
1.000 UL
LTb
1106 2352 N
0 -1904 V
5884 0 V
0 1904 V
-5884 0 V
Z stroke
1.000 UP
1.000 UL
LTb
stroke
grestore
end
showpage
%%Page: 2 2
gnudict begin
gsave
50 50 translate
0.100 0.100 scale
90 rotate
0 -5040 translate
0 setgray
newpath
(Helvetica) findfont 140 scalefont setfont
1.000 UL
LTb
1.000 UL
LTa
1106 2968 M
5884 0 V
stroke
LTb
1106 2968 M
63 0 V
5821 0 R
-63 0 V
-5905 0 R
(-0.3905) Rshow
1.000 UL
LTb
1.000 UL
LTa
1106 3175 M
5884 0 V
stroke
LTb
1106 3175 M
63 0 V
5821 0 R
-63 0 V
-5905 0 R
(-0.39) Rshow
1.000 UL
LTb
1.000 UL
LTa
1106 3381 M
5884 0 V
stroke
LTb
1106 3381 M
63 0 V
5821 0 R
-63 0 V
-5905 0 R
(-0.3895) Rshow
1.000 UL
LTb
1.000 UL
LTa
1106 3588 M
5884 0 V
stroke
LTb
1106 3588 M
63 0 V
5821 0 R
-63 0 V
-5905 0 R
(-0.389) Rshow
1.000 UL
LTb
1.000 UL
LTa
1106 3794 M
5884 0 V
stroke
LTb
1106 3794 M
63 0 V
5821 0 R
-63 0 V
-5905 0 R
(-0.3885) Rshow
1.000 UL
LTb
1.000 UL
LTa
1106 4001 M
5884 0 V
stroke
LTb
1106 4001 M
63 0 V
5821 0 R
-63 0 V
-5905 0 R
(-0.388) Rshow
1.000 UL
LTb
1.000 UL
LTa
1106 4207 M
5884 0 V
stroke
LTb
1106 4207 M
63 0 V
5821 0 R
-63 0 V
-5905 0 R
(-0.3875) Rshow
1.000 UL
LTb
1.000 UL
LTa
1106 4414 M
5884 0 V
stroke
LTb
1106 4414 M
63 0 V
5821 0 R
-63 0 V
-5905 0 R
(-0.387) Rshow
1.000 UL
LTb
1.000 UL
LTa
1106 4620 M
5884 0 V
stroke
LTb
1106 4620 M
63 0 V
5821 0 R
-63 0 V
-5905 0 R
(-0.3865) Rshow
1.000 UL
LTb
1.000 UL
LTa
1106 2968 M
0 1652 V
stroke
LTb
1106 2968 M
0 63 V
0 1589 R
0 -63 V
0 -1729 R
( 0) Cshow
1.000 UL
LTb
1.000 UL
LTa
1694 2968 M
0 1652 V
stroke
LTb
1694 2968 M
0 63 V
0 1589 R
0 -63 V
0 -1729 R
( 1) Cshow
1.000 UL
LTb
1.000 UL
LTa
2283 2968 M
0 1652 V
stroke
LTb
2283 2968 M
0 63 V
0 1589 R
0 -63 V
0 -1729 R
( 2) Cshow
1.000 UL
LTb
1.000 UL
LTa
2871 2968 M
0 1652 V
stroke
LTb
2871 2968 M
0 63 V
0 1589 R
0 -63 V
0 -1729 R
( 3) Cshow
1.000 UL
LTb
1.000 UL
LTa
3460 2968 M
0 1652 V
stroke
LTb
3460 2968 M
0 63 V
0 1589 R
0 -63 V
0 -1729 R
( 4) Cshow
1.000 UL
LTb
1.000 UL
LTa
4048 2968 M
0 1652 V
stroke
LTb
4048 2968 M
0 63 V
0 1589 R
0 -63 V
0 -1729 R
( 5) Cshow
1.000 UL
LTb
1.000 UL
LTa
4636 2968 M
0 1652 V
stroke
LTb
4636 2968 M
0 63 V
0 1589 R
0 -63 V
0 -1729 R
( 6) Cshow
1.000 UL
LTb
1.000 UL
LTa
5225 2968 M
0 1652 V
stroke
LTb
5225 2968 M
0 63 V
0 1589 R
0 -63 V
0 -1729 R
( 7) Cshow
1.000 UL
LTb
1.000 UL
LTa
5813 2968 M
0 1652 V
stroke
LTb
5813 2968 M
0 63 V
0 1589 R
0 -63 V
0 -1729 R
( 8) Cshow
1.000 UL
LTb
1.000 UL
LTa
6402 2968 M
0 1652 V
stroke
LTb
6402 2968 M
0 63 V
0 1589 R
0 -63 V
0 -1729 R
( 9) Cshow
1.000 UL
LTb
1.000 UL
LTa
6990 2968 M
0 1652 V
stroke
LTb
6990 2968 M
0 63 V
0 1589 R
0 -63 V
0 -1729 R
( 10) Cshow
1.000 UL
LTb
1.000 UL
LTb
1106 4620 N
0 -1652 V
5884 0 V
0 1652 V
-5884 0 V
Z stroke
LCb setrgbcolor
280 3794 M
currentpoint gsave translate 90 rotate 0 0 M
(Y coordinate) Cshow
grestore
LTb
LCb setrgbcolor
4048 2618 M
(iteration) Cshow
LTb
4048 4830 M
(DC01X1) Cshow
1.000 UP
1.000 UL
LTb
2.000 UP
2.000 UL
LT0
LC2 setrgbcolor
/Helvetica findfont 140 scalefont setfont
6990 3117 M
-588 243 V
-589 141 V
-588 235 V
4636 3286 L
-588 880 V
3460 3377 L
-589 384 V
2283 3616 L
-589 537 V
-588 351 V
6990 3117 CircleF
6402 3360 CircleF
5813 3501 CircleF
5225 3736 CircleF
4636 3286 CircleF
4048 4166 CircleF
3460 3377 CircleF
2871 3761 CircleF
2283 3616 CircleF
1694 4153 CircleF
1106 4504 CircleF
1.000 UL
LTb
1106 4620 N
0 -1652 V
5884 0 V
0 1652 V
-5884 0 V
Z stroke
1.000 UP
1.000 UL
LTb
1.000 UL
LTb
1.000 UL
LTa
1106 448 M
5884 0 V
stroke
LTb
1106 448 M
63 0 V
5821 0 R
-63 0 V
-5905 0 R
(-0.0025) Rshow
1.000 UL
LTb
1.000 UL
LTa
1106 660 M
5884 0 V
stroke
LTb
1106 660 M
63 0 V
5821 0 R
-63 0 V
-5905 0 R
(-0.002) Rshow
1.000 UL
LTb
1.000 UL
LTa
1106 871 M
5884 0 V
stroke
LTb
1106 871 M
63 0 V
5821 0 R
-63 0 V
-5905 0 R
(-0.0015) Rshow
1.000 UL
LTb
1.000 UL
LTa
1106 1083 M
5884 0 V
stroke
LTb
1106 1083 M
63 0 V
5821 0 R
-63 0 V
-5905 0 R
(-0.001) Rshow
1.000 UL
LTb
1.000 UL
LTa
1106 1294 M
5884 0 V
stroke
LTb
1106 1294 M
63 0 V
5821 0 R
-63 0 V
-5905 0 R
(-0.0005) Rshow
1.000 UL
LTb
1.000 UL
LTa
1106 1506 M
5884 0 V
stroke
LTb
1106 1506 M
63 0 V
5821 0 R
-63 0 V
-5905 0 R
( 0) Rshow
1.000 UL
LTb
1.000 UL
LTa
1106 1717 M
5884 0 V
stroke
LTb
1106 1717 M
63 0 V
5821 0 R
-63 0 V
-5905 0 R
( 0.0005) Rshow
1.000 UL
LTb
1.000 UL
LTa
1106 1929 M
5884 0 V
stroke
LTb
1106 1929 M
63 0 V
5821 0 R
-63 0 V
-5905 0 R
( 0.001) Rshow
1.000 UL
LTb
1.000 UL
LTa
1106 2140 M
5884 0 V
stroke
LTb
1106 2140 M
63 0 V
5821 0 R
-63 0 V
-5905 0 R
( 0.0015) Rshow
1.000 UL
LTb
1.000 UL
LTa
1106 2352 M
5884 0 V
stroke
LTb
1106 2352 M
63 0 V
5821 0 R
-63 0 V
-5905 0 R
( 0.002) Rshow
1.000 UL
LTb
1.000 UL
LTa
1106 448 M
0 1904 V
stroke
LTb
1106 448 M
0 63 V
0 1841 R
0 -63 V
0 -1981 R
( 0) Cshow
1.000 UL
LTb
1.000 UL
LTa
1694 448 M
0 1904 V
stroke
LTb
1694 448 M
0 63 V
0 1841 R
0 -63 V
0 -1981 R
( 1) Cshow
1.000 UL
LTb
1.000 UL
LTa
2283 448 M
0 1904 V
stroke
LTb
2283 448 M
0 63 V
0 1841 R
0 -63 V
0 -1981 R
( 2) Cshow
1.000 UL
LTb
1.000 UL
LTa
2871 448 M
0 1904 V
stroke
LTb
2871 448 M
0 63 V
0 1841 R
0 -63 V
0 -1981 R
( 3) Cshow
1.000 UL
LTb
1.000 UL
LTa
3460 448 M
0 1904 V
stroke
LTb
3460 448 M
0 63 V
0 1841 R
0 -63 V
0 -1981 R
( 4) Cshow
1.000 UL
LTb
1.000 UL
LTa
4048 448 M
0 1904 V
stroke
LTb
4048 448 M
0 63 V
0 1841 R
0 -63 V
0 -1981 R
( 5) Cshow
1.000 UL
LTb
1.000 UL
LTa
4636 448 M
0 1904 V
stroke
LTb
4636 448 M
0 63 V
0 1841 R
0 -63 V
0 -1981 R
( 6) Cshow
1.000 UL
LTb
1.000 UL
LTa
5225 448 M
0 1904 V
stroke
LTb
5225 448 M
0 63 V
0 1841 R
0 -63 V
0 -1981 R
( 7) Cshow
1.000 UL
LTb
1.000 UL
LTa
5813 448 M
0 1904 V
stroke
LTb
5813 448 M
0 63 V
0 1841 R
0 -63 V
0 -1981 R
( 8) Cshow
1.000 UL
LTb
1.000 UL
LTa
6402 448 M
0 1904 V
stroke
LTb
6402 448 M
0 63 V
0 1841 R
0 -63 V
0 -1981 R
( 9) Cshow
1.000 UL
LTb
1.000 UL
LTa
6990 448 M
0 1904 V
stroke
LTb
6990 448 M
0 63 V
0 1841 R
0 -63 V
0 -1981 R
( 10) Cshow
1.000 UL
LTb
1.000 UL
LTb
1106 2352 N
0 -1904 V
5884 0 V
0 1904 V
-5884 0 V
Z stroke
LCb setrgbcolor
280 1400 M
currentpoint gsave translate 90 rotate 0 0 M
(Y residual wrt previous coordinate) Cshow
grestore
LTb
LCb setrgbcolor
4048 98 M
(iteration) Cshow
LTb
1.000 UP
1.000 UL
LTb
2.000 UP
2.000 UL
LT0
LC0 setrgbcolor
/Helvetica findfont 140 scalefont setfont
6990 1256 M
-588 106 V
-589 -97 V
-588 702 V
4636 605 L
4048 2314 L
3460 1112 L
-589 542 V
2283 956 L
-589 190 V
-588 360 V
6990 1256 CircleF
6402 1362 CircleF
5813 1265 CircleF
5225 1967 CircleF
4636 605 CircleF
4048 2314 CircleF
3460 1112 CircleF
2871 1654 CircleF
2283 956 CircleF
1694 1146 CircleF
1106 1506 CircleF
1.000 UL
LTb
1106 2352 N
0 -1904 V
5884 0 V
0 1904 V
-5884 0 V
Z stroke
1.000 UP
1.000 UL
LTb
stroke
grestore
end
showpage
%%Trailer
%%DocumentFonts: Helvetica
%%Pages: 2
