\BOOKMARK [0][-]{chapter*.2}{}{}% 1
\BOOKMARK [0][-]{chapter.1}{ \040 \040 \040}{}% 2
\BOOKMARK [1][-]{section.1.1}{ \040 a0\(980\) \040f0\(980\)}{chapter.1}% 3
\BOOKMARK [1][-]{section.1.2}{ \040 e-e+ * S\(T\) }{chapter.1}% 4
\BOOKMARK [0][-]{chapter.2}{ \040 - \040 \040 }{}% 5
\BOOKMARK [1][-]{section.2.1}{ - \040 - }{chapter.2}% 6
\BOOKMARK [1][-]{section.2.2}{ \040 \040 \040 \040}{chapter.2}% 7
\BOOKMARK [0][-]{chapter.3}{ - }{}% 8
\BOOKMARK [1][-]{section.3.1}{ \040}{chapter.3}% 9
\BOOKMARK [1][-]{section.3.2}{ - }{chapter.3}% 10
\BOOKMARK [0][-]{chapter.4}{ \040 }{}% 11
\BOOKMARK [1][-]{section.4.1}{ \040f0\(980\) \040a0\(980\)}{chapter.4}% 12
\BOOKMARK [1][-]{section.4.2}{ \040f0\(1270\) \040a0\(1320\)}{chapter.4}% 13
\BOOKMARK [0][-]{chapter*.13}{}{}% 14
\BOOKMARK [0][-]{chapter*.14}{ \040 \040}{}% 15
