\babel@toc {russian}{}
\contentsline {chapter}{\IeC {\CYRV }\IeC {\cyrv }\IeC {\cyre }\IeC {\cyrd }\IeC {\cyre }\IeC {\cyrn }\IeC {\cyri }\IeC {\cyre }}{3}{chapter*.2}
\contentsline {chapter}{\numberline {1}\IeC {\CYRO }\IeC {\cyrb }\IeC {\cyrz }\IeC {\cyro }\IeC {\cyrr } \IeC {\cyri }\IeC {\cyrs }\IeC {\cyrs }\IeC {\cyrl }\IeC {\cyre }\IeC {\cyrd }\IeC {\cyro }\IeC {\cyrv }\IeC {\cyra }\IeC {\cyrn }\IeC {\cyri }\IeC {\cyrishrt } \IeC {\cyrp }\IeC {\cyro } \IeC {\cyrt }\IeC {\cyre }\IeC {\cyrm }\IeC {\cyre } \IeC {\cyrr }\IeC {\cyro }\IeC {\cyrzh }\IeC {\cyrd }\IeC {\cyre }\IeC {\cyrn }\IeC {\cyri }\IeC {\cyrya } \IeC {\cyrs }\IeC {\cyrk }\IeC {\cyra }\IeC {\cyrl }\IeC {\cyrya }\IeC {\cyrr }\IeC {\cyrn }\IeC {\cyrery }\IeC {\cyrh }~\IeC {\cyrm }\IeC {\cyre }\IeC {\cyrz }\IeC {\cyro }\IeC {\cyrn }\IeC {\cyro }\IeC {\cyrv }}{5}{chapter.1}
\contentsline {section}{\numberline {1.1}\IeC {\CYRS }\IeC {\cyrv }\IeC {\cyro }\IeC {\cyrishrt }\IeC {\cyrs }\IeC {\cyrt }\IeC {\cyrv }\IeC {\cyra } \IeC {\cyrs }\IeC {\cyrk }\IeC {\cyra }\IeC {\cyrl }\IeC {\cyrya }\IeC {\cyrr }\IeC {\cyrn }\IeC {\cyrery }\IeC {\cyrh } \IeC {\cyrm }\IeC {\cyre }\IeC {\cyrz }\IeC {\cyro }\IeC {\cyrn }\IeC {\cyro }\IeC {\cyrv } $a_0(980)$ \IeC {\cyri } $f_0(980)$}{5}{section.1.1}
\contentsline {section}{\numberline {1.2}\IeC {\CYRS }\IeC {\cyre }\IeC {\cyrch }\IeC {\cyre }\IeC {\cyrn }\IeC {\cyri }\IeC {\cyre } \IeC {\cyrp }\IeC {\cyrr }\IeC {\cyro }\IeC {\cyrc }\IeC {\cyre }\IeC {\cyrs }\IeC {\cyrs }\IeC {\cyra } $ e^-e^+ \rightarrow \gamma ^* \rightarrow \gamma S(T) $}{6}{section.1.2}
\contentsline {chapter}{\numberline {2}\IeC {\CYRA }\IeC {\cyrn }\IeC {\cyra }\IeC {\cyrl }\IeC {\cyri }\IeC {\cyrz } \IeC {\cyrp }\IeC {\cyrr }\IeC {\cyri }\IeC {\cyrm }\IeC {\cyre }\IeC {\cyrn }\IeC {\cyre }\IeC {\cyrn }\IeC {\cyri }\IeC {\cyrya } \IeC {\cyrm }\IeC {\cyre }\IeC {\cyrt }\IeC {\cyro }\IeC {\cyrd }\IeC {\cyro }\IeC {\cyrv } \IeC {\CYRM }\IeC {\cyro }\IeC {\cyrn }\IeC {\cyrt }\IeC {\cyre }\hyp {}\IeC {\CYRK }\IeC {\cyra }\IeC {\cyrr }\IeC {\cyrl }\IeC {\cyro } \IeC {\cyrm }\IeC {\cyro }\IeC {\cyrd }\IeC {\cyre }\IeC {\cyrl }\IeC {\cyri }\IeC {\cyrr }\IeC {\cyro }\IeC {\cyrv }\IeC {\cyra }\IeC {\cyrn }\IeC {\cyri }\IeC {\cyrya } \IeC {\cyrv } \IeC {\cyrf }\IeC {\cyri }\IeC {\cyrz }\IeC {\cyri }\IeC {\cyrk }\IeC {\cyre } \IeC {\cyrv }\IeC {\cyrery }\IeC {\cyrs }\IeC {\cyro }\IeC {\cyrk }\IeC {\cyri }\IeC {\cyrh } \IeC {\cyrerev }\IeC {\cyrn }\IeC {\cyre }\IeC {\cyrr }\IeC {\cyrg }\IeC {\cyri }\IeC {\cyrishrt }}{10}{chapter.2}
\contentsline {section}{\numberline {2.1}\IeC {\CYRO }\IeC {\cyrb }\IeC {\cyrz }\IeC {\cyro }\IeC {\cyrr } \IeC {\CYRM }\IeC {\cyro }\IeC {\cyrn }\IeC {\cyrt }\IeC {\cyre }"=\IeC {\CYRK }\IeC {\cyra }\IeC {\cyrr }\IeC {\cyrl }\IeC {\cyro } \IeC {\cyrg }\IeC {\cyre }\IeC {\cyrn }\IeC {\cyre }\IeC {\cyrr }\IeC {\cyra }\IeC {\cyrt }\IeC {\cyro }\IeC {\cyrr }\IeC {\cyro }\IeC {\cyrv } \IeC {\cyrd }\IeC {\cyrl }\IeC {\cyrya } \IeC {\cyrerev }\IeC {\cyrl }\IeC {\cyre }\IeC {\cyrk }\IeC {\cyrt }\IeC {\cyrr }\IeC {\cyro }\IeC {\cyrn }"=\IeC {\cyrp }\IeC {\cyro }\IeC {\cyrz }\IeC {\cyri }\IeC {\cyrt }\IeC {\cyrr }\IeC {\cyro }\IeC {\cyrn }\IeC {\cyrn }\IeC {\cyro }\IeC {\cyrishrt } \IeC {\cyra }\IeC {\cyrn }\IeC {\cyrn }\IeC {\cyri }\IeC {\cyrg }\IeC {\cyri }\IeC {\cyrl }\IeC {\cyrya }\IeC {\cyrc }\IeC {\cyri }\IeC {\cyri }}{10}{section.2.1}
\contentsline {section}{\numberline {2.2}\IeC {\CYRM }\IeC {\cyre }\IeC {\cyrt }\IeC {\cyro }\IeC {\cyrd }\IeC {\cyrery } \IeC {\cyrg }\IeC {\cyre }\IeC {\cyrn }\IeC {\cyre }\IeC {\cyrr }\IeC {\cyra }\IeC {\cyrc }\IeC {\cyri }\IeC {\cyri } \IeC {\cyrs }\IeC {\cyrl }\IeC {\cyru }\IeC {\cyrch }\IeC {\cyra }\IeC {\cyrishrt }\IeC {\cyrn }\IeC {\cyro }\IeC {\cyrishrt } \IeC {\cyrv }\IeC {\cyre }\IeC {\cyrl }\IeC {\cyri }\IeC {\cyrch }\IeC {\cyri }\IeC {\cyrn }\IeC {\cyrery } \IeC {\cyrs } \IeC {\cyrp }\IeC {\cyrr }\IeC {\cyro }\IeC {\cyri }\IeC {\cyrz }\IeC {\cyrv }\IeC {\cyro }\IeC {\cyrl }\IeC {\cyrsftsn }\IeC {\cyrn }\IeC {\cyro }\IeC {\cyrishrt } \IeC {\cyrf }\IeC {\cyru }\IeC {\cyrn }\IeC {\cyrk }\IeC {\cyrc }\IeC {\cyri }\IeC {\cyre }\IeC {\cyrishrt } \IeC {\cyrp }\IeC {\cyrl }\IeC {\cyro }\IeC {\cyrt }\IeC {\cyrn }\IeC {\cyro }\IeC {\cyrs }\IeC {\cyrt }\IeC {\cyri } \IeC {\cyrv }\IeC {\cyre }\IeC {\cyrr }\IeC {\cyro }\IeC {\cyrya }\IeC {\cyrt }\IeC {\cyrn }\IeC {\cyro }\IeC {\cyrs }\IeC {\cyrt }\IeC {\cyri }}{12}{section.2.2}
\contentsline {chapter}{\numberline {3}\IeC {\CYRR }\IeC {\cyra }\IeC {\cyrz }\IeC {\cyrr }\IeC {\cyra }\IeC {\cyrb }\IeC {\cyro }\IeC {\cyrt }\IeC {\cyrk }\IeC {\cyra } \IeC {\CYRM }\IeC {\cyro }\IeC {\cyrn }\IeC {\cyrt }\IeC {\cyre }-\IeC {\CYRK }\IeC {\cyra }\IeC {\cyrr }\IeC {\cyrl }\IeC {\cyro } \IeC {\cyrg }\IeC {\cyre }\IeC {\cyrn }\IeC {\cyre }\IeC {\cyrr }\IeC {\cyra }\IeC {\cyrt }\IeC {\cyro }\IeC {\cyrr }\IeC {\cyra }}{16}{chapter.3}
\contentsline {section}{\numberline {3.1}\IeC {\CYRP }\IeC {\cyrr }\IeC {\cyro }\IeC {\cyre }\IeC {\cyrk }\IeC {\cyrt }\IeC {\cyri }\IeC {\cyrr }\IeC {\cyro }\IeC {\cyrv }\IeC {\cyra }\IeC {\cyrn }\IeC {\cyri }\IeC {\cyre } \IeC {\cyrs }\IeC {\cyrt }\IeC {\cyrr }\IeC {\cyru }\IeC {\cyrk }\IeC {\cyrt }\IeC {\cyru }\IeC {\cyrr }\IeC {\cyrery } \IeC {\cyrp }\IeC {\cyrr }\IeC {\cyro }\IeC {\cyrg }\IeC {\cyrr }\IeC {\cyra }\IeC {\cyrm }\IeC {\cyrm }\IeC {\cyrery }}{16}{section.3.1}
\contentsline {section}{\numberline {3.2}\IeC {\CYRR }\IeC {\cyre }\IeC {\cyra }\IeC {\cyrl }\IeC {\cyri }\IeC {\cyrz }\IeC {\cyra }\IeC {\cyrc }\IeC {\cyri }\IeC {\cyrya } \IeC {\CYRM }\IeC {\cyro }\IeC {\cyrn }\IeC {\cyrt }\IeC {\cyre }-\IeC {\CYRK }\IeC {\cyra }\IeC {\cyrr }\IeC {\cyrl }\IeC {\cyro } \IeC {\cyrg }\IeC {\cyre }\IeC {\cyrn }\IeC {\cyre }\IeC {\cyrr }\IeC {\cyra }\IeC {\cyrt }\IeC {\cyro }\IeC {\cyrr }\IeC {\cyra }}{18}{section.3.2}
\contentsline {chapter}{\numberline {4}\IeC {\CYRR }\IeC {\cyre }\IeC {\cyrz }\IeC {\cyru }\IeC {\cyrl }\IeC {\cyrsftsn }\IeC {\cyrt }\IeC {\cyra }\IeC {\cyrt }\IeC {\cyrery } \IeC {\cyrm }\IeC {\cyro }\IeC {\cyrd }\IeC {\cyre }\IeC {\cyrl }\IeC {\cyri }\IeC {\cyrr }\IeC {\cyro }\IeC {\cyrv }\IeC {\cyra }\IeC {\cyrn }\IeC {\cyri }\IeC {\cyrya } \IeC {\cyrr }\IeC {\cyro }\IeC {\cyrzh }\IeC {\cyrd }\IeC {\cyre }\IeC {\cyrn }\IeC {\cyri }\IeC {\cyrya } \IeC {\cyrm }\IeC {\cyre }\IeC {\cyrz }\IeC {\cyro }\IeC {\cyrn }\IeC {\cyro }\IeC {\cyrv }}{22}{chapter.4}
\contentsline {section}{\numberline {4.1}\IeC {\CYRS }\IeC {\cyrk }\IeC {\cyra }\IeC {\cyrl }\IeC {\cyrya }\IeC {\cyrr }\IeC {\cyrn }\IeC {\cyrery }\IeC {\cyre } \IeC {\cyrm }\IeC {\cyre }\IeC {\cyrz }\IeC {\cyro }\IeC {\cyrn }\IeC {\cyrery } $f_0(980)$ \IeC {\cyri } $a_0(980)$}{22}{section.4.1}
\contentsline {section}{\numberline {4.2}\IeC {\CYRT }\IeC {\cyre }\IeC {\cyrn }\IeC {\cyrz }\IeC {\cyro }\IeC {\cyrr }\IeC {\cyrn }\IeC {\cyrery }\IeC {\cyre } \IeC {\cyrm }\IeC {\cyre }\IeC {\cyrz }\IeC {\cyro }\IeC {\cyrn }\IeC {\cyrery } $f_0(1270)$ \IeC {\cyri } $a_0(1320)$}{23}{section.4.2}
\contentsline {chapter}{\IeC {\CYRZ }\IeC {\cyra }\IeC {\cyrk }\IeC {\cyrl }\IeC {\cyryu }\IeC {\cyrch }\IeC {\cyre }\IeC {\cyrn }\IeC {\cyri }\IeC {\cyre }}{25}{chapter*.13}
\contentsline {chapter}{\IeC {\CYRS }\IeC {\cyrp }\IeC {\cyri }\IeC {\cyrs }\IeC {\cyro }\IeC {\cyrk } \IeC {\cyri }\IeC {\cyrs }\IeC {\cyrp }\IeC {\cyro }\IeC {\cyrl }\IeC {\cyrsftsn }\IeC {\cyrz }\IeC {\cyro }\IeC {\cyrv }\IeC {\cyra }\IeC {\cyrn }\IeC {\cyrn }\IeC {\cyrery }\IeC {\cyrh } \IeC {\cyri }\IeC {\cyrs }\IeC {\cyrt }\IeC {\cyro }\IeC {\cyrch }\IeC {\cyrn }\IeC {\cyri }\IeC {\cyrk }\IeC {\cyro }\IeC {\cyrv } \IeC {\cyri } \IeC {\cyrl }\IeC {\cyri }\IeC {\cyrt }\IeC {\cyre }\IeC {\cyrr }\IeC {\cyra }\IeC {\cyrt }\IeC {\cyru }\IeC {\cyrr }\IeC {\cyrery }}{26}{chapter*.14}
