\relax 
\providecommand\hyper@newdestlabel[2]{}
\providecommand\HyperFirstAtBeginDocument{\AtBeginDocument}
\HyperFirstAtBeginDocument{\ifx\hyper@anchor\@undefined
\global\let\oldcontentsline\contentsline
\gdef\contentsline#1#2#3#4{\oldcontentsline{#1}{#2}{#3}}
\global\let\oldnewlabel\newlabel
\gdef\newlabel#1#2{\newlabelxx{#1}#2}
\gdef\newlabelxx#1#2#3#4#5#6{\oldnewlabel{#1}{{#2}{#3}}}
\AtEndDocument{\ifx\hyper@anchor\@undefined
\let\contentsline\oldcontentsline
\let\newlabel\oldnewlabel
\fi}
\fi}
\global\let\hyper@last\relax 
\gdef\HyperFirstAtBeginDocument#1{#1}
\providecommand\HyField@AuxAddToFields[1]{}
\providecommand\HyField@AuxAddToCoFields[2]{}
\catcode `"\active 
\bibstyle{unsrt}
\babel@aux{russian}{}
\citation{higgs-atlas,higgs-cms}
\citation{lykken-beyondSM,nojiri-beyondSM}
\citation{bennett-muon,hagiwara,jegerlehner}
\@writefile{toc}{\contentsline {chapter}{\IeC {\CYRV }\IeC {\cyrv }\IeC {\cyre }\IeC {\cyrd }\IeC {\cyre }\IeC {\cyrn }\IeC {\cyri }\IeC {\cyre }}{3}{chapter*.2}}
\citation{achasov1998,bugg2004,close2002,klempt2007,pelaez2016,weinstein1990,branz2008,branz2008_2}
\citation{pdg}
\citation{lebiedowicz2011}
\citation{sauermann1995}
\citation{close1993,ambrosino2009}
\citation{maiani2007,cheng2016,spanier2006}
\citation{pdg}
\citation{abele1998}
\citation{pdg}
\@writefile{toc}{\contentsline {chapter}{\numberline {1}\IeC {\CYRO }\IeC {\cyrb }\IeC {\cyrz }\IeC {\cyro }\IeC {\cyrr } \IeC {\cyri }\IeC {\cyrs }\IeC {\cyrs }\IeC {\cyrl }\IeC {\cyre }\IeC {\cyrd }\IeC {\cyro }\IeC {\cyrv }\IeC {\cyra }\IeC {\cyrn }\IeC {\cyri }\IeC {\cyrishrt } \IeC {\cyrp }\IeC {\cyro } \IeC {\cyrt }\IeC {\cyre }\IeC {\cyrm }\IeC {\cyre } \IeC {\cyrr }\IeC {\cyro }\IeC {\cyrzh }\IeC {\cyrd }\IeC {\cyre }\IeC {\cyrn }\IeC {\cyri }\IeC {\cyrya } \IeC {\cyrs }\IeC {\cyrk }\IeC {\cyra }\IeC {\cyrl }\IeC {\cyrya }\IeC {\cyrr }\IeC {\cyrn }\IeC {\cyrery }\IeC {\cyrh }~\IeC {\cyrm }\IeC {\cyre }\IeC {\cyrz }\IeC {\cyro }\IeC {\cyrn }\IeC {\cyro }\IeC {\cyrv }}{5}{chapter.1}}
\@writefile{lof}{\addvspace {10\p@ }}
\@writefile{lot}{\addvspace {10\p@ }}
\@writefile{toc}{\contentsline {section}{\numberline {1.1}\IeC {\CYRS }\IeC {\cyrv }\IeC {\cyro }\IeC {\cyrishrt }\IeC {\cyrs }\IeC {\cyrt }\IeC {\cyrv }\IeC {\cyra } \IeC {\cyrs }\IeC {\cyrk }\IeC {\cyra }\IeC {\cyrl }\IeC {\cyrya }\IeC {\cyrr }\IeC {\cyrn }\IeC {\cyrery }\IeC {\cyrh } \IeC {\cyrm }\IeC {\cyre }\IeC {\cyrz }\IeC {\cyro }\IeC {\cyrn }\IeC {\cyro }\IeC {\cyrv } $a_0(980)$ \IeC {\cyri } $f_0(980)$}{5}{section.1.1}}
\citation{bugg2004,close2002,klempt2007}
\citation{weinstein1990,branz2008,branz2008_2}
\citation{delbourgo1999,lucio1999,hanhart2007,lemmer2007,branz2008}
\citation{ecklund2009}
\citation{deandrea2001}
\citation{achasov1989}
\citation{oller2003,kalashnikova2005}
\citation{lee2006,chen2007,sugiyama2007}
\citation{chumakov}
\citation{chumakov}
\citation{chumakov}
\@writefile{lot}{\contentsline {table}{\numberline {1.1}{\ignorespaces \IeC {\CYRZ }\IeC {\cyrn }\IeC {\cyra }\IeC {\cyrch }\IeC {\cyre }\IeC {\cyrn }\IeC {\cyri }\IeC {\cyrya } \IeC {\cyri }\IeC {\cyrn }\IeC {\cyrv }\IeC {\cyra }\IeC {\cyrr }\IeC {\cyri }\IeC {\cyra }\IeC {\cyrn }\IeC {\cyrt }\IeC {\cyrn }\IeC {\cyro }\IeC {\cyrishrt } \IeC {\cyrm }\IeC {\cyra }\IeC {\cyrs }\IeC {\cyrs }\IeC {\cyrery }, \IeC {\cyrp }\IeC {\cyro }\IeC {\cyrl }\IeC {\cyrn }\IeC {\cyro }\IeC {\cyrishrt } \IeC {\cyrsh }\IeC {\cyri }\IeC {\cyrr }\IeC {\cyri }\IeC {\cyrn }\IeC {\cyrery } \IeC {\cyrr }\IeC {\cyra }\IeC {\cyrs }\IeC {\cyrp }\IeC {\cyra }\IeC {\cyrd }\IeC {\cyra } \IeC {\cyri } \IeC {\cyrk }\IeC {\cyrv }\IeC {\cyra }\IeC {\cyrn }\IeC {\cyrt }\IeC {\cyro }\IeC {\cyrv }\IeC {\cyrery }\IeC {\cyrh } \IeC {\cyrch }\IeC {\cyri }\IeC {\cyrs }\IeC {\cyre }\IeC {\cyrl } \IeC {\cyrd }\IeC {\cyrl }\IeC {\cyrya } \IeC {\cyrs }\IeC {\cyrk }\IeC {\cyra }\IeC {\cyrl }\IeC {\cyrya }\IeC {\cyrr }\IeC {\cyrn }\IeC {\cyrery }\IeC {\cyrh } \IeC {\cyrm }\IeC {\cyre }\IeC {\cyrz }\IeC {\cyro }\IeC {\cyrn }\IeC {\cyro }\IeC {\cyrv } $f_0(980)$ \IeC {\cyri } $a_0(980)$\relax }}{6}{table.caption.3}}
\providecommand*\caption@xref[2]{\@setref\relax\@undefined{#1}}
\newlabel{tab:scalar_mesons}{{1.1}{6}{Значения инвариантной массы, полной ширины распада и квантовых чисел для скалярных мезонов $f_0(980)$ и $a_0(980)$\relax }{table.caption.3}{}}
\@writefile{toc}{\contentsline {section}{\numberline {1.2}\IeC {\CYRS }\IeC {\cyre }\IeC {\cyrch }\IeC {\cyre }\IeC {\cyrn }\IeC {\cyri }\IeC {\cyre } \IeC {\cyrp }\IeC {\cyrr }\IeC {\cyro }\IeC {\cyrc }\IeC {\cyre }\IeC {\cyrs }\IeC {\cyrs }\IeC {\cyra } $ e^-e^+ \rightarrow \gamma ^* \rightarrow \gamma S(T) $}{6}{section.1.2}}
\citation{lyubovitskij_nonet,lyubovitskij_scalar,lyubovitskij_tensor}
\@writefile{lof}{\contentsline {figure}{\numberline {1.1}{\ignorespaces \IeC {\CYRD }\IeC {\cyri }\IeC {\cyra }\IeC {\cyrg }\IeC {\cyrr }\IeC {\cyra }\IeC {\cyrm }\IeC {\cyrm }\IeC {\cyra } \IeC {\CYRF }\IeC {\cyre }\IeC {\cyrishrt }\IeC {\cyrn }\IeC {\cyrm }\IeC {\cyra }\IeC {\cyrn }\IeC {\cyra } \IeC {\cyrp }\IeC {\cyrr }\IeC {\cyro }\IeC {\cyrc }\IeC {\cyre }\IeC {\cyrs }\IeC {\cyrs }\IeC {\cyra } \IeC {\cyrerev }\IeC {\cyrk }\IeC {\cyrs }\IeC {\cyrl }\IeC {\cyryu }\IeC {\cyrz }\IeC {\cyri }\IeC {\cyrv }\IeC {\cyrn }\IeC {\cyro }\IeC {\cyrg }\IeC {\cyro } \IeC {\cyrr }\IeC {\cyro }\IeC {\cyrzh }\IeC {\cyrd }\IeC {\cyre }\IeC {\cyrn }\IeC {\cyri }\IeC {\cyrya } \IeC {\cyrs }\IeC {\cyrk }\IeC {\cyra }\IeC {\cyrl }\IeC {\cyrya }\IeC {\cyrr }\IeC {\cyrn }\IeC {\cyro }\IeC {\cyrg }\IeC {\cyro } (\IeC {\cyrt }\IeC {\cyre }\IeC {\cyrn }\IeC {\cyrz }\IeC {\cyro }\IeC {\cyrr }\IeC {\cyrn }\IeC {\cyro }\IeC {\cyrg }\IeC {\cyro }) \IeC {\cyrm }\IeC {\cyre }\IeC {\cyrz }\IeC {\cyro }\IeC {\cyrn }\IeC {\cyra } $S (T)$ \IeC {\cyrv } \IeC {\cyrerev }\IeC {\cyrl }\IeC {\cyre }\IeC {\cyrk }\IeC {\cyrt }\IeC {\cyrr }\IeC {\cyro }\IeC {\cyrn }-\IeC {\cyrp }\IeC {\cyro }\IeC {\cyrz }\IeC {\cyri }\IeC {\cyrt }\IeC {\cyrr }\IeC {\cyro }\IeC {\cyrn }\IeC {\cyrn }\IeC {\cyro }\IeC {\cyrishrt } \IeC {\cyra }\IeC {\cyrn }\IeC {\cyrn }\IeC {\cyri }\IeC {\cyrg }\IeC {\cyri }\IeC {\cyrl }\IeC {\cyrya }\IeC {\cyrc }\IeC {\cyri }\IeC {\cyri } \IeC {\cyrch }\IeC {\cyre }\IeC {\cyrr }\IeC {\cyre }\IeC {\cyrz } \IeC {\cyrv }\IeC {\cyri }\IeC {\cyrr }\IeC {\cyrt }\IeC {\cyru }\IeC {\cyra }\IeC {\cyrl }\IeC {\cyrsftsn }\IeC {\cyrn }\IeC {\cyrery }\IeC {\cyrishrt } \IeC {\cyrf }\IeC {\cyro }\IeC {\cyrt }\IeC {\cyro }\IeC {\cyrn }~\cite  {chumakov}\relax }}{7}{figure.caption.4}}
\newlabel{img:feynman}{{1.1}{7}{Диаграмма Фейнмана процесса экслюзивного рождения скалярного (тензорного) мезона $S (T)$ в электрон-позитронной аннигиляции через виртуальный фотон~\cite {chumakov}\relax }{figure.caption.4}{}}
\newlabel{eq:lagrangian}{{1.1}{7}{Сечение процесса \eeProcess }{equation.1.2.1}{}}
\newlabel{eq:formfactor}{{1.2}{7}{Сечение процесса \eeProcess }{equation.1.2.2}{}}
\newlabel{eq:decay_width}{{1.3}{8}{Сечение процесса \eeProcess }{equation.1.2.3}{}}
\newlabel{eq:matrix_element}{{1.4}{8}{Сечение процесса \eeProcess }{equation.1.2.4}{}}
\newlabel{eq:diff_cross_section}{{1.5}{8}{Сечение процесса \eeProcess }{equation.1.2.5}{}}
\newlabel{eq:integral_cross_section}{{1.6}{9}{Сечение процесса \eeProcess }{equation.1.2.6}{}}
\newlabel{eq:formfactor_formula}{{1.7}{9}{Сечение процесса \eeProcess }{equation.1.2.7}{}}
\newlabel{eq:formfactor_formula}{{1.8}{9}{Сечение процесса \eeProcess }{equation.1.2.8}{}}
\citation{pythia}
\@writefile{toc}{\contentsline {chapter}{\numberline {2}\IeC {\CYRA }\IeC {\cyrn }\IeC {\cyra }\IeC {\cyrl }\IeC {\cyri }\IeC {\cyrz } \IeC {\cyrp }\IeC {\cyrr }\IeC {\cyri }\IeC {\cyrm }\IeC {\cyre }\IeC {\cyrn }\IeC {\cyre }\IeC {\cyrn }\IeC {\cyri }\IeC {\cyrya } \IeC {\cyrm }\IeC {\cyre }\IeC {\cyrt }\IeC {\cyro }\IeC {\cyrd }\IeC {\cyro }\IeC {\cyrv } \IeC {\CYRM }\IeC {\cyro }\IeC {\cyrn }\IeC {\cyrt }\IeC {\cyre }\hyp  {}\IeC {\CYRK }\IeC {\cyra }\IeC {\cyrr }\IeC {\cyrl }\IeC {\cyro } \IeC {\cyrm }\IeC {\cyro }\IeC {\cyrd }\IeC {\cyre }\IeC {\cyrl }\IeC {\cyri }\IeC {\cyrr }\IeC {\cyro }\IeC {\cyrv }\IeC {\cyra }\IeC {\cyrn }\IeC {\cyri }\IeC {\cyrya } \IeC {\cyrv } \IeC {\cyrf }\IeC {\cyri }\IeC {\cyrz }\IeC {\cyri }\IeC {\cyrk }\IeC {\cyre } \IeC {\cyrv }\IeC {\cyrery }\IeC {\cyrs }\IeC {\cyro }\IeC {\cyrk }\IeC {\cyri }\IeC {\cyrh } \IeC {\cyrerev }\IeC {\cyrn }\IeC {\cyre }\IeC {\cyrr }\IeC {\cyrg }\IeC {\cyri }\IeC {\cyrishrt }}{10}{chapter.2}}
\@writefile{lof}{\addvspace {10\p@ }}
\@writefile{lot}{\addvspace {10\p@ }}
\@writefile{toc}{\contentsline {section}{\numberline {2.1}\IeC {\CYRO }\IeC {\cyrb }\IeC {\cyrz }\IeC {\cyro }\IeC {\cyrr } \IeC {\CYRM }\IeC {\cyro }\IeC {\cyrn }\IeC {\cyrt }\IeC {\cyre }"=\IeC {\CYRK }\IeC {\cyra }\IeC {\cyrr }\IeC {\cyrl }\IeC {\cyro } \IeC {\cyrg }\IeC {\cyre }\IeC {\cyrn }\IeC {\cyre }\IeC {\cyrr }\IeC {\cyra }\IeC {\cyrt }\IeC {\cyro }\IeC {\cyrr }\IeC {\cyro }\IeC {\cyrv } \IeC {\cyrd }\IeC {\cyrl }\IeC {\cyrya } \IeC {\cyrerev }\IeC {\cyrl }\IeC {\cyre }\IeC {\cyrk }\IeC {\cyrt }\IeC {\cyrr }\IeC {\cyro }\IeC {\cyrn }"=\IeC {\cyrp }\IeC {\cyro }\IeC {\cyrz }\IeC {\cyri }\IeC {\cyrt }\IeC {\cyrr }\IeC {\cyro }\IeC {\cyrn }\IeC {\cyrn }\IeC {\cyro }\IeC {\cyrishrt } \IeC {\cyra }\IeC {\cyrn }\IeC {\cyrn }\IeC {\cyri }\IeC {\cyrg }\IeC {\cyri }\IeC {\cyrl }\IeC {\cyrya }\IeC {\cyrc }\IeC {\cyri }\IeC {\cyri }}{10}{section.2.1}}
\citation{babayaga}
\citation{labsmc}
\citation{bhwide}
\citation{photos}
\citation{treps}
\citation{ggresrc}
\citation{ekhara}
\citation{galuga}
\citation{ekhara}
\citation{carlomat1}
\citation{carlomat3}
\citation{pdg,sobol}
\@writefile{toc}{\contentsline {section}{\numberline {2.2}\IeC {\CYRM }\IeC {\cyre }\IeC {\cyrt }\IeC {\cyro }\IeC {\cyrd }\IeC {\cyrery } \IeC {\cyrg }\IeC {\cyre }\IeC {\cyrn }\IeC {\cyre }\IeC {\cyrr }\IeC {\cyra }\IeC {\cyrc }\IeC {\cyri }\IeC {\cyri } \IeC {\cyrs }\IeC {\cyrl }\IeC {\cyru }\IeC {\cyrch }\IeC {\cyra }\IeC {\cyrishrt }\IeC {\cyrn }\IeC {\cyro }\IeC {\cyrishrt } \IeC {\cyrv }\IeC {\cyre }\IeC {\cyrl }\IeC {\cyri }\IeC {\cyrch }\IeC {\cyri }\IeC {\cyrn }\IeC {\cyrery } \IeC {\cyrs } \IeC {\cyrp }\IeC {\cyrr }\IeC {\cyro }\IeC {\cyri }\IeC {\cyrz }\IeC {\cyrv }\IeC {\cyro }\IeC {\cyrl }\IeC {\cyrsftsn }\IeC {\cyrn }\IeC {\cyro }\IeC {\cyrishrt } \IeC {\cyrf }\IeC {\cyru }\IeC {\cyrn }\IeC {\cyrk }\IeC {\cyrc }\IeC {\cyri }\IeC {\cyre }\IeC {\cyrishrt } \IeC {\cyrp }\IeC {\cyrl }\IeC {\cyro }\IeC {\cyrt }\IeC {\cyrn }\IeC {\cyro }\IeC {\cyrs }\IeC {\cyrt }\IeC {\cyri } \IeC {\cyrv }\IeC {\cyre }\IeC {\cyrr }\IeC {\cyro }\IeC {\cyrya }\IeC {\cyrt }\IeC {\cyrn }\IeC {\cyro }\IeC {\cyrs }\IeC {\cyrt }\IeC {\cyri }}{12}{section.2.2}}
\citation{sobol,neumann,pdg}
\citation{root,root2}
\citation{tfoam}
\citation{foam,foam2}
\newlabel{reversed_function}{{2.1}{13}{Методы генерации случайной величины с произвольной функцией плотности вероятности}{equation.2.2.1}{}}
\citation{root}
\citation{root}
\newlabel{camel}{{2.3}{14}{Методы генерации случайной величины с произвольной функцией плотности вероятности}{equation.2.2.3}{}}
\newlabel{camel_parameters}{{2.4}{14}{Методы генерации случайной величины с произвольной функцией плотности вероятности}{equation.2.2.4}{}}
\newlabel{}{{2.1\cyra }{14}{\relax }{figure.caption.5}{}}
\newlabel{sub@}{{\cyra }{14}{\relax }{figure.caption.5}{}}
\newlabel{}{{2.1\cyrb }{14}{\relax }{figure.caption.5}{}}
\newlabel{sub@}{{\cyrb }{14}{\relax }{figure.caption.5}{}}
\@writefile{lof}{\contentsline {figure}{\numberline {2.1}{\ignorespaces  \IeC {\CYRG }\IeC {\cyre }\IeC {\cyrn }\IeC {\cyre }\IeC {\cyrr }\IeC {\cyri }\IeC {\cyrr }\IeC {\cyro }\IeC {\cyrv }\IeC {\cyra }\IeC {\cyrn }\IeC {\cyri }\IeC {\cyre } \IeC {\cyrs }\IeC {\cyro }\IeC {\cyrb }\IeC {\cyrery }\IeC {\cyrt }\IeC {\cyri }\IeC {\cyrishrt }, \IeC {\cyrr }\IeC {\cyra }\IeC {\cyrs }\IeC {\cyrp }\IeC {\cyrr }\IeC {\cyre }\IeC {\cyrd }\IeC {\cyre }\IeC {\cyrl }\IeC {\cyryo }\IeC {\cyrn }\IeC {\cyrn }\IeC {\cyrery }\IeC {\cyrh } \IeC {\cyrp }\IeC {\cyro } \IeC {\cyrf }\IeC {\cyru }\IeC {\cyrn }\IeC {\cyrk }\IeC {\cyrc }\IeC {\cyri }\IeC {\cyri } \IeC {\cyrp }\IeC {\cyrl }\IeC {\cyro }\IeC {\cyrt }\IeC {\cyrn }\IeC {\cyro }\IeC {\cyrs }\IeC {\cyrt }\IeC {\cyri } \IeC {\cyrv }\IeC {\cyre }\IeC {\cyrr }\IeC {\cyro }\IeC {\cyrya }\IeC {\cyrt }\IeC {\cyrn }\IeC {\cyro }\IeC {\cyrs }\IeC {\cyrt }\IeC {\cyri } (\ref  {camel}), \IeC {\cyrs } \IeC {\cyrp }\IeC {\cyro }\IeC {\cyrm }\IeC {\cyro }\IeC {\cyrshch }\IeC {\cyrsftsn }\IeC {\cyryu } \IeC {\cyrk }\IeC {\cyrl }\IeC {\cyra }\IeC {\cyrs }\IeC {\cyrs }\IeC {\cyra } TFoam; (\IeC {\cyra }) -- \IeC {\cyrr }\IeC {\cyre }\IeC {\cyrz }\IeC {\cyru }\IeC {\cyrl }\IeC {\cyrsftsn }\IeC {\cyrt }\IeC {\cyra }\IeC {\cyrt } \IeC {\cyrk }\IeC {\cyrl }\IeC {\cyre }\IeC {\cyrt }\IeC {\cyro }\IeC {\cyrch }\IeC {\cyrn }\IeC {\cyro }\IeC {\cyrishrt } \IeC {\cyrg }\IeC {\cyre }\IeC {\cyrn }\IeC {\cyre }\IeC {\cyrr }\IeC {\cyra }\IeC {\cyrc }\IeC {\cyri }\IeC {\cyri }, (\IeC {\cyrb }) -- \IeC {\cyrd }\IeC {\cyri }\IeC {\cyra }\IeC {\cyrg }\IeC {\cyrr }\IeC {\cyra }\IeC {\cyrm }\IeC {\cyrm }\IeC {\cyra } \IeC {\cyrr }\IeC {\cyra }\IeC {\cyrs }\IeC {\cyrs }\IeC {\cyre }\IeC {\cyrya }\IeC {\cyrn }\IeC {\cyri }\IeC {\cyrya }, \IeC {\cyrs }\IeC {\cyro }\IeC {\cyrd }\IeC {\cyre }\IeC {\cyrr }\IeC {\cyrzh }\IeC {\cyra }\IeC {\cyrshch }\IeC {\cyra }\IeC {\cyrya } $10^5$ \IeC {\cyrs }\IeC {\cyro }\IeC {\cyrb }\IeC {\cyrery }\IeC {\cyrt }\IeC {\cyri }\IeC {\cyrishrt }, \IeC {\cyrp }\IeC {\cyro }\IeC {\cyrl }\IeC {\cyru }\IeC {\cyrch }\IeC {\cyre }\IeC {\cyrn }\IeC {\cyrn }\IeC {\cyrery }\IeC {\cyrh } \IeC {\cyrp }\IeC {\cyrr }\IeC {\cyri } \IeC {\cyrp }\IeC {\cyro }\IeC {\cyrm }\IeC {\cyro }\IeC {\cyrshch }\IeC {\cyri } \IeC {\cyrm }\IeC {\cyre }\IeC {\cyrt }\IeC {\cyro }\IeC {\cyrd }\IeC {\cyra } FOAM~\cite  {root}\relax }}{14}{figure.caption.5}}
\newlabel{img:camel}{{2.1}{14}{Генерирование событий, распределённых по функции плотности вероятности (\ref {camel}), с помощью класса TFoam; (а) -- результат клеточной генерации, (б) -- диаграмма рассеяния, содержащая $10^5$ событий, полученных при помощи метода FOAM~\cite {root}\relax }{figure.caption.5}{}}
\citation{chumakov}
\@writefile{toc}{\contentsline {chapter}{\numberline {3}\IeC {\CYRR }\IeC {\cyra }\IeC {\cyrz }\IeC {\cyrr }\IeC {\cyra }\IeC {\cyrb }\IeC {\cyro }\IeC {\cyrt }\IeC {\cyrk }\IeC {\cyra } \IeC {\CYRM }\IeC {\cyro }\IeC {\cyrn }\IeC {\cyrt }\IeC {\cyre }-\IeC {\CYRK }\IeC {\cyra }\IeC {\cyrr }\IeC {\cyrl }\IeC {\cyro } \IeC {\cyrg }\IeC {\cyre }\IeC {\cyrn }\IeC {\cyre }\IeC {\cyrr }\IeC {\cyra }\IeC {\cyrt }\IeC {\cyro }\IeC {\cyrr }\IeC {\cyra }}{16}{chapter.3}}
\@writefile{lof}{\addvspace {10\p@ }}
\@writefile{lot}{\addvspace {10\p@ }}
\@writefile{toc}{\contentsline {section}{\numberline {3.1}\IeC {\CYRP }\IeC {\cyrr }\IeC {\cyro }\IeC {\cyre }\IeC {\cyrk }\IeC {\cyrt }\IeC {\cyri }\IeC {\cyrr }\IeC {\cyro }\IeC {\cyrv }\IeC {\cyra }\IeC {\cyrn }\IeC {\cyri }\IeC {\cyre } \IeC {\cyrs }\IeC {\cyrt }\IeC {\cyrr }\IeC {\cyru }\IeC {\cyrk }\IeC {\cyrt }\IeC {\cyru }\IeC {\cyrr }\IeC {\cyrery } \IeC {\cyrp }\IeC {\cyrr }\IeC {\cyro }\IeC {\cyrg }\IeC {\cyrr }\IeC {\cyra }\IeC {\cyrm }\IeC {\cyrm }\IeC {\cyrery }}{16}{section.3.1}}
\citation{isocpp}
\@writefile{lof}{\contentsline {figure}{\numberline {3.1}{\ignorespaces UML\hyp  {}\IeC {\cyrd }\IeC {\cyri }\IeC {\cyra }\IeC {\cyrg }\IeC {\cyrr }\IeC {\cyra }\IeC {\cyrm }\IeC {\cyrm }\IeC {\cyra } \IeC {\CYRM }\IeC {\cyro }\IeC {\cyrn }\IeC {\cyrt }\IeC {\cyre }\hyp  {}\IeC {\CYRK }\IeC {\cyra }\IeC {\cyrr }\IeC {\cyrl }\IeC {\cyro } \IeC {\cyrg }\IeC {\cyre }\IeC {\cyrn }\IeC {\cyre }\IeC {\cyrr }\IeC {\cyra }\IeC {\cyrt }\IeC {\cyro }\IeC {\cyrr }\IeC {\cyra } \relax }}{17}{figure.caption.6}}
\newlabel{img:uml}{{3.1}{17}{UML\hyp {}диаграмма Монте\hyp {}Карло генератора \relax }{figure.caption.6}{}}
\@writefile{toc}{\contentsline {section}{\numberline {3.2}\IeC {\CYRR }\IeC {\cyre }\IeC {\cyra }\IeC {\cyrl }\IeC {\cyri }\IeC {\cyrz }\IeC {\cyra }\IeC {\cyrc }\IeC {\cyri }\IeC {\cyrya } \IeC {\CYRM }\IeC {\cyro }\IeC {\cyrn }\IeC {\cyrt }\IeC {\cyre }-\IeC {\CYRK }\IeC {\cyra }\IeC {\cyrr }\IeC {\cyrl }\IeC {\cyro } \IeC {\cyrg }\IeC {\cyre }\IeC {\cyrn }\IeC {\cyre }\IeC {\cyrr }\IeC {\cyra }\IeC {\cyrt }\IeC {\cyro }\IeC {\cyrr }\IeC {\cyra }}{18}{section.3.2}}
\newlabel{eq:solid_angle}{{3.1}{19}{Реализация Монте-Карло генератора}{equation.3.2.1}{}}
\newlabel{eq:cross_section_again}{{3.2}{19}{Реализация Монте-Карло генератора}{equation.3.2.2}{}}
\newlabel{eq:mand_vars}{{3.3}{19}{Реализация Монте-Карло генератора}{equation.3.2.3}{}}
\newlabel{eq:4tensors}{{3.4}{19}{Реализация Монте-Карло генератора}{equation.3.2.4}{}}
\citation{chumakov}
\citation{pdg}
\newlabel{eq:spherical_coordinates}{{3.6}{20}{Реализация Монте-Карло генератора}{equation.3.2.6}{}}
\newlabel{eq:conversation_law}{{3.7}{20}{Реализация Монте-Карло генератора}{equation.3.2.7}{}}
\newlabel{eq:einstein_law}{{3.8}{20}{Реализация Монте-Карло генератора}{equation.3.2.8}{}}
\newlabel{eq:meson_energy}{{3.9}{20}{Реализация Монте-Карло генератора}{equation.3.2.9}{}}
\newlabel{eq:formfactor_const}{{3.10}{20}{Реализация Монте-Карло генератора}{equation.3.2.10}{}}
\citation{cern_batch}
\citation{cyberia}
\newlabel{eq:particles_const}{{3.11}{21}{Реализация Монте-Карло генератора}{equation.3.2.11}{}}
\newlabel{}{{3.2\cyra }{21}{\relax }{figure.caption.7}{}}
\newlabel{sub@}{{\cyra }{21}{\relax }{figure.caption.7}{}}
\newlabel{}{{3.2\cyrb }{21}{\relax }{figure.caption.7}{}}
\newlabel{sub@}{{\cyrb }{21}{\relax }{figure.caption.7}{}}
\@writefile{lof}{\contentsline {figure}{\numberline {3.2}{\ignorespaces  \IeC {\CYRG }\IeC {\cyri }\IeC {\cyrs }\IeC {\cyrt }\IeC {\cyro }\IeC {\cyrg }\IeC {\cyrr }\IeC {\cyra }\IeC {\cyrm }\IeC {\cyrm }\IeC {\cyrery } \IeC {\cyru }\IeC {\cyrg }\IeC {\cyrl }\IeC {\cyro }\IeC {\cyrv } \IeC {\cyrr }\IeC {\cyra }\IeC {\cyrz }\IeC {\cyrl }\IeC {\cyryo }\IeC {\cyrt }\IeC {\cyra } $\theta $ \IeC {\cyrs }\IeC {\cyrk }\IeC {\cyra }\IeC {\cyrl }\IeC {\cyrya }\IeC {\cyrr }\IeC {\cyrn }\IeC {\cyro }\IeC {\cyrg }\IeC {\cyro } \IeC {\cyrm }\IeC {\cyre }\IeC {\cyrz }\IeC {\cyro }\IeC {\cyrn }\IeC {\cyra } $a_0(980)$ \IeC {\cyrp }\IeC {\cyrr }\IeC {\cyri } \IeC {\cyrerev }\IeC {\cyrn }\IeC {\cyre }\IeC {\cyrr }\IeC {\cyrg }\IeC {\cyri }\IeC {\cyri } \IeC {\cyrp }\IeC {\cyrr }\IeC {\cyro }\IeC {\cyrc }\IeC {\cyre }\IeC {\cyrs }\IeC {\cyrs }\IeC {\cyra } $1,5$ \IeC {\CYRG }\IeC {\cyrerev }\IeC {\CYRV }, \IeC {\cyrk }\IeC {\cyro }\IeC {\cyrl }\IeC {\cyri }\IeC {\cyrch }\IeC {\cyre }\IeC {\cyrs }\IeC {\cyrt }\IeC {\cyrv }\IeC {\cyro } \IeC {\cyrs }\IeC {\cyro }\IeC {\cyrb }\IeC {\cyrery }\IeC {\cyrt }\IeC {\cyri }\IeC {\cyrishrt } $10^8$; (\IeC {\cyra }) -- \IeC {\cyra }\IeC {\cyrl }\IeC {\cyrg }\IeC {\cyro }\IeC {\cyrr }\IeC {\cyri }\IeC {\cyrt }\IeC {\cyrm } FOAM, (\IeC {\cyrb }) -- \IeC {\cyrm }\IeC {\cyre }\IeC {\cyrt }\IeC {\cyro }\IeC {\cyrd } \IeC {\CYRN }\IeC {\cyre }\IeC {\cyrishrt }\IeC {\cyrm }\IeC {\cyra }\IeC {\cyrn }\IeC {\cyra }.\relax }}{21}{figure.caption.7}}
\newlabel{img:hist_scalar_examples}{{3.2}{21}{Гистограммы углов разлёта $\theta $ скалярного мезона $a_0(980)$ при энергии процесса $1,5$ ГэВ, количество событий $10^8$; (а) -- алгоритм FOAM, (б) -- метод Неймана.\relax }{figure.caption.7}{}}
\citation{chumakov}
\citation{chumakov}
\@writefile{toc}{\contentsline {chapter}{\numberline {4}\IeC {\CYRR }\IeC {\cyre }\IeC {\cyrz }\IeC {\cyru }\IeC {\cyrl }\IeC {\cyrsftsn }\IeC {\cyrt }\IeC {\cyra }\IeC {\cyrt }\IeC {\cyrery } \IeC {\cyrm }\IeC {\cyro }\IeC {\cyrd }\IeC {\cyre }\IeC {\cyrl }\IeC {\cyri }\IeC {\cyrr }\IeC {\cyro }\IeC {\cyrv }\IeC {\cyra }\IeC {\cyrn }\IeC {\cyri }\IeC {\cyrya } \IeC {\cyrr }\IeC {\cyro }\IeC {\cyrzh }\IeC {\cyrd }\IeC {\cyre }\IeC {\cyrn }\IeC {\cyri }\IeC {\cyrya } \IeC {\cyrm }\IeC {\cyre }\IeC {\cyrz }\IeC {\cyro }\IeC {\cyrn }\IeC {\cyro }\IeC {\cyrv }}{22}{chapter.4}}
\@writefile{lof}{\addvspace {10\p@ }}
\@writefile{lot}{\addvspace {10\p@ }}
\@writefile{toc}{\contentsline {section}{\numberline {4.1}\IeC {\CYRS }\IeC {\cyrk }\IeC {\cyra }\IeC {\cyrl }\IeC {\cyrya }\IeC {\cyrr }\IeC {\cyrn }\IeC {\cyrery }\IeC {\cyre } \IeC {\cyrm }\IeC {\cyre }\IeC {\cyrz }\IeC {\cyro }\IeC {\cyrn }\IeC {\cyrery } $f_0(980)$ \IeC {\cyri } $a_0(980)$}{22}{section.4.1}}
\newlabel{eq:cross_section_neumann}{{4.1}{22}{Скалярные мезоны $f_0(980)$ и $a_0(980)$}{equation.4.1.1}{}}
\@writefile{lof}{\contentsline {figure}{\numberline {4.1}{\ignorespaces \IeC {\CYRZ }\IeC {\cyra }\IeC {\cyrv }\IeC {\cyri }\IeC {\cyrs }\IeC {\cyri }\IeC {\cyrm }\IeC {\cyro }\IeC {\cyrs }\IeC {\cyrt }\IeC {\cyrsftsn } \IeC {\cyrp }\IeC {\cyro }\IeC {\cyrl }\IeC {\cyrn }\IeC {\cyro }\IeC {\cyrg }\IeC {\cyro } \IeC {\cyrs }\IeC {\cyre }\IeC {\cyrch }\IeC {\cyre }\IeC {\cyrn }\IeC {\cyri }\IeC {\cyrya } \IeC {\cyrr }\IeC {\cyro }\IeC {\cyrzh }\IeC {\cyrd }\IeC {\cyre }\IeC {\cyrn }\IeC {\cyri }\IeC {\cyrya } \IeC {\cyrs }\IeC {\cyrk }\IeC {\cyra }\IeC {\cyrl }\IeC {\cyrya }\IeC {\cyrr }\IeC {\cyrn }\IeC {\cyro }\IeC {\cyrg }\IeC {\cyro } \IeC {\cyrm }\IeC {\cyre }\IeC {\cyrz }\IeC {\cyro }\IeC {\cyrn }\IeC {\cyra } $a_0(980)$ \IeC {\cyro }\IeC {\cyrt } \IeC {\cyrerev }\IeC {\cyrn }\IeC {\cyre }\IeC {\cyrr }\IeC {\cyrg }\IeC {\cyri }\IeC {\cyri } \IeC {\cyrp }\IeC {\cyrr }\IeC {\cyro }\IeC {\cyrc }\IeC {\cyre }\IeC {\cyrs }\IeC {\cyrs }\IeC {\cyra }\relax }}{22}{figure.caption.8}}
\newlabel{img:a0_spectre}{{4.1}{22}{Зависимость полного сечения рождения скалярного мезона $a_0(980)$ от энергии процесса\relax }{figure.caption.8}{}}
\citation{chumakov}
\@writefile{lof}{\contentsline {figure}{\numberline {4.2}{\ignorespaces \IeC {\CYRZ }\IeC {\cyra }\IeC {\cyrv }\IeC {\cyri }\IeC {\cyrs }\IeC {\cyri }\IeC {\cyrm }\IeC {\cyro }\IeC {\cyrs }\IeC {\cyrt }\IeC {\cyrsftsn } \IeC {\cyrp }\IeC {\cyro }\IeC {\cyrl }\IeC {\cyrn }\IeC {\cyro }\IeC {\cyrg }\IeC {\cyro } \IeC {\cyrs }\IeC {\cyre }\IeC {\cyrch }\IeC {\cyre }\IeC {\cyrn }\IeC {\cyri }\IeC {\cyrya } \IeC {\cyrr }\IeC {\cyro }\IeC {\cyrzh }\IeC {\cyrd }\IeC {\cyre }\IeC {\cyrn }\IeC {\cyri }\IeC {\cyrya } \IeC {\cyrs }\IeC {\cyrk }\IeC {\cyra }\IeC {\cyrl }\IeC {\cyrya }\IeC {\cyrr }\IeC {\cyrn }\IeC {\cyro }\IeC {\cyrg }\IeC {\cyro } \IeC {\cyrm }\IeC {\cyre }\IeC {\cyrz }\IeC {\cyro }\IeC {\cyrn }\IeC {\cyra } $f_0(980)$ \IeC {\cyro }\IeC {\cyrt } \IeC {\cyrerev }\IeC {\cyrn }\IeC {\cyre }\IeC {\cyrr }\IeC {\cyrg }\IeC {\cyri }\IeC {\cyri } \IeC {\cyrp }\IeC {\cyrr }\IeC {\cyro }\IeC {\cyrc }\IeC {\cyre }\IeC {\cyrs }\IeC {\cyrs }\IeC {\cyra }\relax }}{23}{figure.caption.9}}
\newlabel{img:f0_spectre}{{4.2}{23}{Зависимость полного сечения рождения скалярного мезона $f_0(980)$ от энергии процесса\relax }{figure.caption.9}{}}
\@writefile{toc}{\contentsline {section}{\numberline {4.2}\IeC {\CYRT }\IeC {\cyre }\IeC {\cyrn }\IeC {\cyrz }\IeC {\cyro }\IeC {\cyrr }\IeC {\cyrn }\IeC {\cyrery }\IeC {\cyre } \IeC {\cyrm }\IeC {\cyre }\IeC {\cyrz }\IeC {\cyro }\IeC {\cyrn }\IeC {\cyrery } $f_0(1270)$ \IeC {\cyri } $a_0(1320)$}{23}{section.4.2}}
\@writefile{lot}{\contentsline {table}{\numberline {4.1}{\ignorespaces \IeC {\CYRZ }\IeC {\cyrn }\IeC {\cyra }\IeC {\cyrch }\IeC {\cyre }\IeC {\cyrn }\IeC {\cyri }\IeC {\cyrya } \IeC {\cyri }\IeC {\cyrn }\IeC {\cyrv }\IeC {\cyra }\IeC {\cyrr }\IeC {\cyri }\IeC {\cyra }\IeC {\cyrn }\IeC {\cyrt }\IeC {\cyrn }\IeC {\cyro }\IeC {\cyrishrt } \IeC {\cyrm }\IeC {\cyra }\IeC {\cyrs }\IeC {\cyrs }\IeC {\cyrery }, \IeC {\cyrp }\IeC {\cyro }\IeC {\cyrl }\IeC {\cyrn }\IeC {\cyro }\IeC {\cyrishrt } \IeC {\cyrsh }\IeC {\cyri }\IeC {\cyrr }\IeC {\cyri }\IeC {\cyrn }\IeC {\cyrery } \IeC {\cyrr }\IeC {\cyra }\IeC {\cyrs }\IeC {\cyrp }\IeC {\cyra }\IeC {\cyrd }\IeC {\cyra } \IeC {\cyri } \IeC {\cyrp }\IeC {\cyra }\IeC {\cyrr }\IeC {\cyra }\IeC {\cyrm }\IeC {\cyre }\IeC {\cyrt }\IeC {\cyrr }\IeC {\cyro }\IeC {\cyrv } \IeC {\cyrm }\IeC {\cyre }\IeC {\cyrz }\IeC {\cyro }\IeC {\cyrn }\IeC {\cyro }\IeC {\cyrv } $f_2(1270)$ \IeC {\cyri } $a_2(1320)$, \IeC {\cyri }\IeC {\cyrs }\IeC {\cyrp }\IeC {\cyro }\IeC {\cyrl }\IeC {\cyrsftsn }\IeC {\cyrz }\IeC {\cyru }\IeC {\cyre }\IeC {\cyrm }\IeC {\cyrery }\IeC {\cyre } \IeC {\cyrp }\IeC {\cyrr }\IeC {\cyri } \IeC {\CYRM }\IeC {\cyro }\IeC {\cyrn }\IeC {\cyrt }\IeC {\cyre }-\IeC {\CYRK }\IeC {\cyra }\IeC {\cyrr }\IeC {\cyrl }\IeC {\cyro } \IeC {\cyrm }\IeC {\cyro }\IeC {\cyrd }\IeC {\cyre }\IeC {\cyrl }\IeC {\cyri }\IeC {\cyrr }\IeC {\cyro }\IeC {\cyrv }\IeC {\cyra }\IeC {\cyrn }\IeC {\cyri }\IeC {\cyri }\relax }}{24}{table.caption.10}}
\newlabel{tab:tensor_mesons}{{4.1}{24}{Значения инвариантной массы, полной ширины распада и параметров мезонов $f_2(1270)$ и $a_2(1320)$, используемые при Монте-Карло моделировании\relax }{table.caption.10}{}}
\@writefile{lof}{\contentsline {figure}{\numberline {4.3}{\ignorespaces \IeC {\CYRZ }\IeC {\cyra }\IeC {\cyrv }\IeC {\cyri }\IeC {\cyrs }\IeC {\cyri }\IeC {\cyrm }\IeC {\cyro }\IeC {\cyrs }\IeC {\cyrt }\IeC {\cyrsftsn } \IeC {\cyrp }\IeC {\cyro }\IeC {\cyrl }\IeC {\cyrn }\IeC {\cyro }\IeC {\cyrg }\IeC {\cyro } \IeC {\cyrs }\IeC {\cyre }\IeC {\cyrch }\IeC {\cyre }\IeC {\cyrn }\IeC {\cyri }\IeC {\cyrya } \IeC {\cyrr }\IeC {\cyro }\IeC {\cyrzh }\IeC {\cyrd }\IeC {\cyre }\IeC {\cyrn }\IeC {\cyri }\IeC {\cyrya } \IeC {\cyrs }\IeC {\cyrk }\IeC {\cyra }\IeC {\cyrl }\IeC {\cyrya }\IeC {\cyrr }\IeC {\cyrn }\IeC {\cyro }\IeC {\cyrg }\IeC {\cyro } \IeC {\cyrm }\IeC {\cyre }\IeC {\cyrz }\IeC {\cyro }\IeC {\cyrn }\IeC {\cyra } $a_0(1320)$ \IeC {\cyro }\IeC {\cyrt } \IeC {\cyrerev }\IeC {\cyrn }\IeC {\cyre }\IeC {\cyrr }\IeC {\cyrg }\IeC {\cyri }\IeC {\cyri } \IeC {\cyrp }\IeC {\cyrr }\IeC {\cyro }\IeC {\cyrc }\IeC {\cyre }\IeC {\cyrs }\IeC {\cyrs }\IeC {\cyra }\relax }}{24}{figure.caption.11}}
\newlabel{img:a2_spectre}{{4.3}{24}{Зависимость полного сечения рождения скалярного мезона $a_0(1320)$ от энергии процесса\relax }{figure.caption.11}{}}
\@writefile{lof}{\contentsline {figure}{\numberline {4.4}{\ignorespaces \IeC {\CYRZ }\IeC {\cyra }\IeC {\cyrv }\IeC {\cyri }\IeC {\cyrs }\IeC {\cyri }\IeC {\cyrm }\IeC {\cyro }\IeC {\cyrs }\IeC {\cyrt }\IeC {\cyrsftsn } \IeC {\cyrp }\IeC {\cyro }\IeC {\cyrl }\IeC {\cyrn }\IeC {\cyro }\IeC {\cyrg }\IeC {\cyro } \IeC {\cyrs }\IeC {\cyre }\IeC {\cyrch }\IeC {\cyre }\IeC {\cyrn }\IeC {\cyri }\IeC {\cyrya } \IeC {\cyrr }\IeC {\cyro }\IeC {\cyrzh }\IeC {\cyrd }\IeC {\cyre }\IeC {\cyrn }\IeC {\cyri }\IeC {\cyrya } \IeC {\cyrs }\IeC {\cyrk }\IeC {\cyra }\IeC {\cyrl }\IeC {\cyrya }\IeC {\cyrr }\IeC {\cyrn }\IeC {\cyro }\IeC {\cyrg }\IeC {\cyro } \IeC {\cyrm }\IeC {\cyre }\IeC {\cyrz }\IeC {\cyro }\IeC {\cyrn }\IeC {\cyra } $f_0(1270)$ \IeC {\cyro }\IeC {\cyrt } \IeC {\cyrerev }\IeC {\cyrn }\IeC {\cyre }\IeC {\cyrr }\IeC {\cyrg }\IeC {\cyri }\IeC {\cyri } \IeC {\cyrp }\IeC {\cyrr }\IeC {\cyro }\IeC {\cyrc }\IeC {\cyre }\IeC {\cyrs }\IeC {\cyrs }\IeC {\cyra }\relax }}{24}{figure.caption.12}}
\newlabel{img:f2_spectre}{{4.4}{24}{Зависимость полного сечения рождения скалярного мезона $f_0(1270)$ от энергии процесса\relax }{figure.caption.12}{}}
\citation{chumakov}
\@writefile{toc}{\contentsline {chapter}{\IeC {\CYRZ }\IeC {\cyra }\IeC {\cyrk }\IeC {\cyrl }\IeC {\cyryu }\IeC {\cyrch }\IeC {\cyre }\IeC {\cyrn }\IeC {\cyri }\IeC {\cyre }}{25}{chapter*.13}}
\bibcite{higgs-atlas}{1}
\bibcite{higgs-cms}{2}
\bibcite{lykken-beyondSM}{3}
\bibcite{nojiri-beyondSM}{4}
\bibcite{bennett-muon}{5}
\bibcite{hagiwara}{6}
\bibcite{jegerlehner}{7}
\bibcite{achasov1998}{8}
\bibcite{bugg2004}{9}
\bibcite{close2002}{10}
\bibcite{klempt2007}{11}
\@writefile{toc}{\contentsline {chapter}{\IeC {\CYRS }\IeC {\cyrp }\IeC {\cyri }\IeC {\cyrs }\IeC {\cyro }\IeC {\cyrk } \IeC {\cyri }\IeC {\cyrs }\IeC {\cyrp }\IeC {\cyro }\IeC {\cyrl }\IeC {\cyrsftsn }\IeC {\cyrz }\IeC {\cyro }\IeC {\cyrv }\IeC {\cyra }\IeC {\cyrn }\IeC {\cyrn }\IeC {\cyrery }\IeC {\cyrh } \IeC {\cyri }\IeC {\cyrs }\IeC {\cyrt }\IeC {\cyro }\IeC {\cyrch }\IeC {\cyrn }\IeC {\cyri }\IeC {\cyrk }\IeC {\cyro }\IeC {\cyrv } \IeC {\cyri } \IeC {\cyrl }\IeC {\cyri }\IeC {\cyrt }\IeC {\cyre }\IeC {\cyrr }\IeC {\cyra }\IeC {\cyrt }\IeC {\cyru }\IeC {\cyrr }\IeC {\cyrery }}{26}{chapter*.14}}
\bibcite{pelaez2016}{12}
\bibcite{weinstein1990}{13}
\bibcite{branz2008}{14}
\bibcite{branz2008_2}{15}
\bibcite{pdg}{16}
\bibcite{lebiedowicz2011}{17}
\bibcite{sauermann1995}{18}
\bibcite{close1993}{19}
\bibcite{ambrosino2009}{20}
\bibcite{maiani2007}{21}
\bibcite{cheng2016}{22}
\bibcite{spanier2006}{23}
\bibcite{abele1998}{24}
\bibcite{delbourgo1999}{25}
\bibcite{lucio1999}{26}
\bibcite{hanhart2007}{27}
\bibcite{lemmer2007}{28}
\bibcite{ecklund2009}{29}
\bibcite{deandrea2001}{30}
\bibcite{achasov1989}{31}
\bibcite{oller2003}{32}
\bibcite{kalashnikova2005}{33}
\bibcite{lee2006}{34}
\bibcite{chen2007}{35}
\bibcite{sugiyama2007}{36}
\bibcite{chumakov}{37}
\bibcite{lyubovitskij_nonet}{38}
\bibcite{lyubovitskij_scalar}{39}
\bibcite{lyubovitskij_tensor}{40}
\bibcite{sobol}{41}
\bibcite{neumann}{42}
\bibcite{root}{43}
\bibcite{root2}{44}
\bibcite{tfoam}{45}
\bibcite{foam}{46}
\bibcite{foam2}{47}
\bibcite{pythia}{48}
\bibcite{babayaga}{49}
\bibcite{labsmc}{50}
\bibcite{bhwide}{51}
\bibcite{photos}{52}
\bibcite{treps}{53}
\bibcite{ggresrc}{54}
\bibcite{ekhara}{55}
\bibcite{galuga}{56}
\bibcite{carlomat1}{57}
\bibcite{carlomat3}{58}
\bibcite{isocpp}{59}
\bibcite{cern_batch}{60}
\bibcite{cyberia}{61}
